<svg width="150" height="150" viewBox="0 0 150 150" fill="none" xmlns="http://www.w3.org/2000/svg">
<circle opacity="0.1" cx="75" cy="75" r="75" fill="#00A3A4"/>
<path d="M145.23 120.26H4.04362C2.35874 120.26 1.00024 118.883 1.00024 117.196V37.901C1.00024 36.2045 2.36756 34.8365 4.04362 34.8365H145.239C146.924 34.8365 148.282 36.2133 148.282 37.901V117.196C148.282 118.892 146.915 120.26 145.23 120.26Z" fill="#00A3A4" stroke="#00A3A4" stroke-width="1.21" stroke-miterlimit="10" stroke-linecap="round" stroke-linejoin="round"/>
<path d="M145.107 121.56H4.17478C2.41715 121.56 1 120.082 1 118.27V38.347C1 36.526 2.42635 35.0577 4.17478 35.0577H145.107C146.865 35.0577 148.282 36.5355 148.282 38.347V118.27C148.282 120.091 146.865 121.56 145.107 121.56Z" fill="white" stroke="#00A3A4" stroke-width="1.21" stroke-miterlimit="10" stroke-linecap="round" stroke-linejoin="round"/>
<path d="M22.6013 121.611L20.5795 124.325L17.4794 128.485H13.7644L18.8947 121.611H22.6013Z" fill="white" stroke="#00A3A4" stroke-width="1.21" stroke-miterlimit="10" stroke-linecap="round" stroke-linejoin="round"/>
<path d="M27.511 128.485H23.4517L20.6378 124.325L22.852 121.611L27.511 128.485Z" fill="#00A3A4" stroke="#00A3A4" stroke-width="1.21" stroke-miterlimit="10" stroke-linecap="round" stroke-linejoin="round"/>
<path d="M139.445 128.485H135.327L131.882 124.325L129.626 121.611H133.745L139.445 128.485Z" fill="white" stroke="#00A3A4" stroke-width="1.21" stroke-miterlimit="10" stroke-linecap="round" stroke-linejoin="round"/>
<path d="M131.59 124.325L128.771 128.485H124.717L129.37 121.611L131.59 124.325Z" fill="#00A3A4" stroke="#00A3A4" stroke-width="1.21" stroke-miterlimit="10" stroke-linecap="round" stroke-linejoin="round"/>
<circle cx="125.903" cy="24.1858" r="5.1875" stroke="#00A3A4"/>
<circle cx="74.6512" cy="3.50818" r="3.00818" stroke="#00A3A4"/>
<circle cx="56.5332" cy="140.49" r="2.57988" stroke="#00A3A4"/>
<circle cx="91.0993" cy="131.936" r="4.97385" stroke="#00A3A4"/>
<circle cx="22.0373" cy="34.8365" r="4.97385" stroke="#00A3A4"/>
<path fill-rule="evenodd" clip-rule="evenodd" d="M90.1172 65.0216C86.5656 61.3125 80.9101 60.9855 76.9891 64.2618L74.6414 66.224L72.2936 64.2618C68.3726 60.9855 62.7171 61.3125 59.1655 65.0216C55.5483 68.7992 55.3289 74.7702 58.7192 78.6241C61.6689 81.9807 65.1061 85.6976 68.2001 88.5626C69.7509 89.9981 71.1723 91.1809 72.3743 91.9936C73.6719 92.869 74.1499 93.0903 74.6414 93.0903C75.1328 93.0903 75.6108 92.869 76.9085 91.9936C78.1105 91.1809 79.5318 89.9981 81.0826 88.5626C84.1767 85.6976 87.6139 81.9807 90.5635 78.6241C93.952 74.7702 93.7345 68.7992 90.1172 65.0216Z" fill="#00A3A4"/>
</svg>
