<svg width="150" height="152" viewBox="0 0 150 152" fill="none" xmlns="http://www.w3.org/2000/svg">
<circle opacity="0.1" cx="75" cy="75" r="75" fill="#00A3A4"/>
<rect x="29.9365" y="2.15137" width="87.8493" height="138.281" rx="3.64412" fill="white" stroke="#00A3A4" stroke-width="1.21471"/>
<path d="M29.8867 5.79548C29.8867 3.78289 31.5182 2.15137 33.5308 2.15137H114.092C116.104 2.15137 117.736 3.78289 117.736 5.79549V39.7808C102.384 45.466 85.6524 46.2809 69.8204 42.1146L64.7494 40.7801C53.5813 37.8411 41.8946 37.4552 30.5568 39.6511L29.8867 39.7808V5.79548Z" fill="#00A3A4"/>
<rect width="58.5662" height="17.8952" rx="2.42941" transform="matrix(1 0 0 -1 44.5787 122.537)" stroke="#00A3A4" stroke-width="1.21471"/>
<path d="M93.3336 119.284L100.975 148.567L107.187 140.535L116.109 136.311L93.3336 119.284Z" fill="white"/>
<path d="M112.419 135.941L106.369 138.805C106.096 138.934 105.858 139.126 105.674 139.364L101.844 144.316L96.5651 124.089L112.419 135.941ZM92.2659 117.696L92.8798 118.609L92.2659 117.696C91.5913 118.15 91.277 118.98 91.4823 119.767L99.1242 149.05C99.3084 149.756 99.8779 150.296 100.593 150.442L100.813 149.364L100.593 150.442C101.307 150.588 102.043 150.315 102.489 149.738L108.42 142.068L116.928 138.041C117.535 137.754 117.946 137.17 118.013 136.502C118.08 135.835 117.793 135.181 117.255 134.779L116.597 135.66L117.255 134.779L94.4794 117.751C93.8283 117.265 92.9406 117.242 92.2659 117.696Z" fill="#00A3A4" stroke="white" stroke-width="2.2" stroke-miterlimit="10" stroke-linecap="round" stroke-linejoin="round"/>
<path d="M107.558 140.053C107.348 139.791 106.966 139.749 106.704 139.958C106.442 140.168 106.4 140.55 106.609 140.812L107.558 140.053ZM113.117 148.947C113.327 149.209 113.709 149.252 113.971 149.042C114.233 148.833 114.276 148.45 114.066 148.188L113.117 148.947ZM106.609 140.812L113.117 148.947L114.066 148.188L107.558 140.053L106.609 140.812Z" fill="#00A3A4"/>
<path d="M39.6982 57.4639H109.652" stroke="#00A3A4" stroke-width="1.21471" stroke-miterlimit="10" stroke-linecap="round" stroke-linejoin="round"/>
<path d="M54.3398 94.8813H95.0108" stroke="#00A3A4" stroke-width="1.21471" stroke-miterlimit="10" stroke-linecap="round" stroke-linejoin="round"/>
<path d="M39.6982 65.5981H109.652" stroke="#00A3A4" stroke-width="1.21471" stroke-miterlimit="10" stroke-linecap="round" stroke-linejoin="round"/>
<path d="M83.278 101.465L82.7748 101.805L83.278 101.465C82.795 100.75 81.8253 100.563 81.1153 101.061C80.4124 101.554 80.2406 102.525 80.719 103.234L87.348 113.046C87.8311 113.761 88.8008 113.947 89.5107 113.449C90.2137 112.956 90.3855 111.985 89.907 111.277L83.278 101.465ZM105.081 104.409C105.582 103.716 105.439 102.74 104.752 102.225C104.058 101.705 103.083 101.861 102.578 102.561L95.6325 112.184C95.1322 112.878 95.2749 113.854 95.9617 114.368C96.6554 114.888 97.6307 114.733 98.1359 114.033L105.081 104.409ZM73.4723 116.176C72.6097 116.084 71.8557 116.721 71.7681 117.573C71.6807 118.422 72.2862 119.202 73.1468 119.294L84.8322 120.542C85.6948 120.634 86.4488 119.997 86.5364 119.145C86.6238 118.295 86.0183 117.516 85.1577 117.424L73.4723 116.176Z" fill="#FAC23D" stroke="white" stroke-width="1.21471" stroke-miterlimit="10" stroke-linecap="round" stroke-linejoin="round"/>
<circle cx="133.894" cy="78.9456" r="3.44559" stroke="#00A3A4"/>
<circle cx="16.2789" cy="28.7876" r="5.1875" stroke="#00A3A4"/>
<circle cx="23.2955" cy="112.006" r="2.05487" stroke="#00A3A4"/>
</svg>
