<svg width="48" height="48" viewBox="0 0 48 48" fill="none" xmlns="http://www.w3.org/2000/svg">
<circle cx="24" cy="24" r="24" fill="#00A3A4"/>
<path d="M22.0792 27.2966C20.0714 27.2984 18.1443 26.5025 16.7182 25.0824C15.2922 23.6624 14.483 21.7335 14.467 19.7164C14.451 17.7063 15.2237 15.7707 16.6178 14.3288C18.012 12.8868 19.9154 12.0545 21.9158 12.0121C22.9263 11.9911 23.9308 12.1728 24.8705 12.5465C25.8103 12.9202 26.6664 13.4783 27.3889 14.1884C28.1113 14.8984 28.6856 15.746 29.0781 16.6817C29.4706 17.6173 29.6734 18.6222 29.6747 19.6376C29.6781 20.6419 29.4842 21.6371 29.104 22.566C28.7239 23.4949 28.165 24.3393 27.4593 25.0509C26.7537 25.7624 25.9153 26.327 24.9921 26.7124C24.0688 27.0977 23.079 27.2963 22.0792 27.2966ZM27.6112 19.6893C27.6665 16.63 25.1373 14.1175 22.1474 14.0787C19.2129 14.04 16.5421 16.3909 16.5254 19.6246C16.513 21.0926 17.0793 22.5059 18.1006 23.5559C19.1219 24.6059 20.5152 25.2072 21.9763 25.2287C25.2209 25.2843 27.6446 22.5973 27.6086 19.6854L27.6112 19.6893Z" fill="#F8F8F8"/>
<path d="M25.0421 27.1829C27.0348 26.7409 28.6288 25.7172 29.8021 24.0564C30.6874 22.7907 31.1704 21.2853 31.1877 19.7384C31.2764 16.3586 28.8076 12.8276 25.1038 12.1129C27.3217 11.6787 30.4981 12.4541 32.4266 15.1877C34.355 17.9212 34.3383 21.4974 32.3918 24.1611C31.5692 25.3033 30.4449 26.1916 29.1461 26.7256C27.8473 27.2596 26.4258 27.418 25.0421 27.1829Z" fill="#F8F8F8"/>
<path d="M32.0831 30.4308L31.9904 30.7397C31.4947 32.3966 30.9973 34.0535 30.4981 35.7105C30.494 35.7375 30.4844 35.7634 30.4699 35.7867C30.4555 35.8099 30.4365 35.8299 30.4141 35.8455C30.3917 35.8611 30.3664 35.8719 30.3397 35.8774C30.313 35.8828 30.2855 35.8828 30.2588 35.8772C29.9719 35.8707 29.685 35.8681 29.3994 35.8772C29.3726 35.8824 29.3449 35.8819 29.3182 35.8758C29.2915 35.8698 29.2663 35.8583 29.2442 35.842C29.2221 35.8258 29.2036 35.8052 29.1898 35.7814C29.176 35.7577 29.1672 35.7313 29.164 35.704C28.742 34.0342 28.3171 32.3647 27.8891 30.6958C27.8758 30.6332 27.8424 30.5769 27.7939 30.5355C27.7753 30.6006 27.7624 30.6672 27.7553 30.7345C27.7077 31.8628 27.664 32.9924 27.6164 34.1208C27.5919 34.6894 27.5572 35.2568 27.5353 35.8242C27.5353 35.9534 27.4864 35.9974 27.3603 35.9948C26.9898 35.9948 26.6193 35.9883 26.2488 35.9948C26.1021 35.9948 26.0751 35.9328 26.0841 35.8022C26.1356 34.9906 26.1806 34.1776 26.2321 33.3647C26.2964 32.3212 26.3629 31.2782 26.4315 30.2356C26.4598 29.8014 26.4907 29.3684 26.5203 28.9264C26.5529 28.9136 26.5871 28.9049 26.6219 28.9005C27.2445 28.9005 27.8659 28.9005 28.4886 28.9005C28.6172 28.9005 28.6507 28.969 28.6777 29.0724C29.0705 30.5553 29.4642 32.0378 29.8587 33.5198C29.878 33.5947 29.8999 33.6697 29.9205 33.7459H29.9809C30.0671 33.4112 30.1456 33.0739 30.2382 32.7417C30.601 31.5139 30.9728 30.2861 31.3369 29.0582C31.3416 29.033 31.3511 29.009 31.365 28.9875C31.3789 28.966 31.3968 28.9474 31.4179 28.9329C31.4389 28.9184 31.4626 28.9082 31.4875 28.9028C31.5125 28.8975 31.5382 28.8972 31.5633 28.9018C32.1294 28.9083 32.6955 28.9109 33.2615 28.9018C33.421 28.9018 33.4674 28.9587 33.4738 29.1048C33.5021 29.6928 33.5368 30.2809 33.569 30.8702C33.6359 32.0765 33.7028 33.2798 33.7697 34.4801C33.7941 34.9285 33.8083 35.377 33.834 35.8255C33.8417 35.9547 33.7993 36.0013 33.6706 36C33.2718 36 32.8743 35.9935 32.4755 36C32.3339 36 32.2992 35.9431 32.2953 35.8139C32.2735 35.1185 32.2387 34.4245 32.2182 33.7304C32.186 32.6784 32.1616 31.625 32.1333 30.573C32.1292 30.5296 32.1227 30.4864 32.114 30.4437L32.0831 30.4308Z" fill="#F8F8F8"/>
<path d="M20.4016 35.9948H19.8446C19.5307 35.9948 19.2155 35.9883 18.9016 35.9948C18.875 35.9996 18.8478 35.9991 18.8215 35.9932C18.7951 35.9873 18.7702 35.9763 18.7482 35.9606C18.7261 35.945 18.7074 35.9251 18.6931 35.9021C18.6788 35.8791 18.6692 35.8535 18.6649 35.8268C18.5298 35.3447 18.3818 34.8704 18.2532 34.3909C18.2495 34.355 18.2388 34.3203 18.2214 34.2888C18.2041 34.2572 18.1806 34.2295 18.1524 34.2073C18.1242 34.1851 18.0918 34.1688 18.0571 34.1595C18.0225 34.1502 17.9864 34.148 17.9508 34.1531C17.4195 34.1647 16.8882 34.1634 16.3582 34.1531C16.3239 34.1462 16.2885 34.1467 16.2545 34.1547C16.2205 34.1627 16.1886 34.1779 16.1609 34.1994C16.1332 34.2208 16.1104 34.2479 16.0941 34.279C16.0777 34.31 16.0682 34.3442 16.0661 34.3792C15.9375 34.8613 15.8011 35.3382 15.6699 35.8177C15.6429 35.9198 15.6171 35.9987 15.4846 35.9961C15.0305 35.9961 14.5764 35.9961 14.1222 35.9961C14.0808 35.9913 14.0399 35.9827 14 35.9703C14.0978 35.6458 14.1917 35.3331 14.2869 35.0203C14.672 33.7615 15.0579 32.5026 15.4447 31.2438C15.6583 30.542 15.8719 29.8402 16.0726 29.1345C16.077 29.0974 16.089 29.0616 16.1078 29.0294C16.1266 28.9972 16.1519 28.9693 16.1819 28.9473C16.212 28.9254 16.2463 28.9099 16.2826 28.9018C16.3189 28.8938 16.3564 28.8933 16.3929 28.9005C16.9371 28.9148 17.4826 28.9109 18.028 28.9005C18.0583 28.8958 18.0892 28.8971 18.119 28.9044C18.1487 28.9117 18.1767 28.9249 18.2014 28.9432C18.226 28.9615 18.2468 28.9845 18.2626 29.0109C18.2783 29.0373 18.2887 29.0665 18.2931 29.097C18.9792 31.3372 19.6679 33.5728 20.3592 35.8035C20.372 35.8526 20.381 35.9069 20.4016 35.9948ZM17.1236 30.1142L16.3826 32.9575H17.92C17.6524 32.0011 17.3925 31.0719 17.1236 30.1142Z" fill="#F8F8F8"/>
<path d="M21.8644 30.2253C21.3369 30.2253 20.8275 30.2253 20.3206 30.2253C19.9346 30.2253 19.9771 30.2809 19.9745 29.8802C19.9745 29.5649 19.9745 29.2508 19.9745 28.9186H25.3778V30.2201H23.4648V30.4877C23.4648 32.2441 23.4648 33.9993 23.4648 35.7544C23.4648 35.9534 23.4069 36.0051 23.2178 35.9987C22.8473 35.9849 22.4768 35.9849 22.1063 35.9987C21.9184 36.0051 21.8708 35.9418 21.8721 35.7596C21.8773 34.0174 21.8773 32.276 21.8721 30.5355C21.8811 30.4386 21.8708 30.3429 21.8644 30.2253Z" fill="#F8F8F8"/>
<path d="M22.5064 23.6894H21.5595V23.0432C21.5595 22.7511 21.5595 22.7847 21.261 22.7226C20.8532 22.6464 20.4531 22.5288 20.0517 22.4228C19.905 22.384 19.8665 22.3013 19.9166 22.1398C20.0131 21.836 20.0787 21.522 20.1636 21.1846C20.2923 21.2441 20.4106 21.3009 20.5303 21.3462C21.0565 21.5465 21.5929 21.6809 22.1642 21.5724C22.4652 21.5142 22.6955 21.3333 22.7354 21.1161C22.7881 20.8305 22.6929 20.5991 22.3906 20.4389C22.1243 20.2928 21.8297 20.1972 21.5518 20.0705C21.2563 19.9472 20.9684 19.806 20.6898 19.6479C19.5873 18.972 19.7327 17.4662 20.7593 16.8678C20.9675 16.7552 21.187 16.6651 21.4141 16.599C21.5543 16.5538 21.62 16.4943 21.6071 16.3405C21.5929 16.1518 21.6071 15.9605 21.6071 15.7718C21.6071 15.6504 21.6521 15.6103 21.7653 15.6129C22.0226 15.6129 22.2684 15.6129 22.5552 15.6129C22.5552 15.8378 22.563 16.0523 22.5552 16.2656C22.5552 16.4116 22.5938 16.4698 22.7469 16.4956C23.1007 16.5577 23.4507 16.6494 23.8032 16.7244C23.9781 16.7619 23.9987 16.8536 23.9485 17.0152C23.8598 17.3073 23.7954 17.6071 23.726 17.8811C23.3691 17.7731 23.0066 17.6847 22.6402 17.6162C22.378 17.5886 22.1132 17.6026 21.8554 17.6575C21.7568 17.6708 21.665 17.7157 21.5939 17.7856C21.5227 17.8554 21.4759 17.9465 21.4604 18.0453C21.4367 18.1495 21.4493 18.2587 21.4961 18.3547C21.543 18.4507 21.6212 18.5276 21.7177 18.5726C22.0509 18.7458 22.3996 18.8867 22.7392 19.0469C22.9965 19.1684 23.2615 19.2809 23.5111 19.4269C24.566 20.0602 24.5094 21.6241 23.5497 22.2703C23.2841 22.4269 23.0013 22.5523 22.7071 22.6438C22.5784 22.6942 22.4935 22.7356 22.5025 22.9023C22.5167 23.1492 22.5064 23.4089 22.5064 23.6894Z" fill="#F8F8F8"/>
</svg>
