<svg width="24" height="24" viewBox="0 0 24 24" fill="none" xmlns="http://www.w3.org/2000/svg">
<circle cx="12" cy="12" r="11" fill="#F8F8F8"/>
<circle cx="12" cy="12" r="11" fill="#F8F8F8"/>
<circle cx="12" cy="12" r="11" fill="#F8F8F8"/>
<path fill-rule="evenodd" clip-rule="evenodd" d="M12 24C18.6274 24 24 18.6274 24 12C24 5.37258 18.6274 0 12 0C5.37258 0 0 5.37258 0 12C0 18.6274 5.37258 24 12 24ZM10.4185 18.5007H12.7246V12.7992H13.1049L14.5677 12.8006C14.5696 12.8006 14.5714 12.8007 14.5733 12.8007C14.6112 12.8008 14.641 12.8009 14.6483 12.745C14.706 12.2974 14.7652 11.8499 14.8245 11.4024C14.8488 11.2189 14.8732 11.0354 14.8974 10.8519C14.9058 10.7887 14.9135 10.7248 14.9217 10.6567C14.9249 10.6301 14.9282 10.6029 14.9316 10.5749H12.7234V10.4858C12.7234 10.3659 12.7231 10.246 12.7228 10.1261C12.722 9.82622 12.7213 9.52641 12.7254 9.22667C12.7259 9.06618 12.74 8.90603 12.7674 8.74789C12.8295 8.41245 13.0194 8.18683 13.3688 8.12065L13.3705 8.12032C13.4707 8.10125 13.5726 8.08184 13.6739 8.08039C13.9793 8.07639 14.2848 8.07598 14.5902 8.07557C14.6988 8.07542 14.8074 8.07528 14.916 8.07497H14.9997V6.08841C14.9758 6.08529 14.9526 6.08173 14.9297 6.07822C14.882 6.07089 14.8361 6.06385 14.7899 6.06177C14.6646 6.05628 14.5394 6.05043 14.4142 6.04458C14.038 6.027 13.6618 6.00943 13.2853 6.00174C12.838 5.99266 12.4019 6.06513 11.9883 6.24405C11.4833 6.4628 11.0837 6.80321 10.807 7.2795C10.5325 7.75212 10.4282 8.27072 10.4197 8.80924C10.4137 9.19181 10.4145 9.57458 10.4154 9.95733C10.4158 10.1334 10.4162 10.3095 10.4159 10.4855C10.4159 10.5041 10.4147 10.5225 10.4134 10.5432C10.4128 10.5539 10.4121 10.5653 10.4115 10.5775H8.5V12.803H10.4185V18.5007Z" fill="#7E7E7E"/>
</svg>
