<svg width="24" height="21" viewBox="0 0 24 21" fill="none" xmlns="http://www.w3.org/2000/svg">
<path d="M14.1566 5.25354C14.8164 5.25696 15.3488 5.78594 15.3522 6.44277C15.3561 7.10301 14.8047 7.65492 14.1449 7.65151C13.493 7.64809 12.9557 7.11033 12.9508 6.45545C12.9459 5.78837 13.4861 5.25013 14.1566 5.25354Z" fill="#FAC23D"/>
<path d="M20.6932 6.4413C20.6956 7.11082 20.1569 7.65444 19.4932 7.65102C18.8403 7.6476 18.3026 7.10984 18.2982 6.45643C18.2938 5.78886 18.834 5.24964 19.5025 5.25354C20.1672 5.25745 20.6908 5.77959 20.6932 6.4413Z" fill="#FAC23D"/>
<path d="M7.60736 6.45643C7.60346 5.79423 8.12414 5.26233 8.78438 5.25403C9.45781 5.24525 9.99947 5.77374 10.0019 6.44179C10.0044 7.10984 9.4622 7.65492 8.79951 7.65151C8.14366 7.64712 7.61127 7.11375 7.60736 6.45643Z" fill="#FAC23D"/>
<path d="M2.85437 17.2605C2.50985 17.237 2.19657 17.2487 1.89743 17.1887C0.78482 16.9667 0.0128255 16.0341 0.0079456 14.901C-0.00132615 12.8276 -0.00425407 10.7536 0.00892157 8.68018C0.0172173 7.37189 1.05565 6.35834 2.36394 6.34566C2.68699 6.34273 3.01004 6.34517 3.36041 6.34517V6.63113C3.36041 7.85109 3.35797 9.07057 3.3609 10.2905C3.36676 12.4299 5.03177 14.0939 7.16817 14.0954C9.38802 14.0973 11.6084 14.0983 13.8282 14.0924C14.0908 14.0915 14.3074 14.153 14.5221 14.313C15.0819 14.7302 15.6591 15.125 16.2501 15.5432C15.9544 16.3713 15.3937 16.9062 14.5446 17.1209C14.3274 17.176 14.0942 17.1843 13.8682 17.1848C12.0632 17.1897 10.2576 17.1907 8.45255 17.1848C8.15488 17.1838 7.90211 17.2653 7.66006 17.44C6.32786 18.3999 4.99029 19.352 3.65321 20.305C3.32577 20.5383 3.02224 20.4943 2.87438 20.1825C2.82509 20.0781 2.81387 19.9473 2.81484 19.8287C2.82314 19.0401 2.83973 18.2516 2.85388 17.463C2.85535 17.4 2.85437 17.3366 2.85437 17.2605Z" fill="#FAC23D"/>
<path fill-rule="evenodd" clip-rule="evenodd" d="M20.6112 13.0911C20.6112 13.8748 20.6078 14.6214 20.6127 15.3685C20.6146 15.7262 20.6268 16.0839 20.6439 16.4411C20.6547 16.6695 20.6049 16.8691 20.396 16.9843C20.1769 17.1048 19.9715 17.0277 19.7821 16.894C19.1585 16.4528 18.5348 16.0117 17.9117 15.5701C16.8313 14.8034 15.7587 14.0256 14.6646 13.2795C14.4733 13.1492 14.1927 13.1004 13.9527 13.0989C11.6923 13.0857 9.43194 13.094 7.17159 13.0896C5.80279 13.0872 4.69994 12.2064 4.41642 10.8908C4.3725 10.6858 4.35591 10.4716 4.35542 10.2617C4.35151 7.7818 4.35054 5.30185 4.35347 2.8219C4.35542 1.21887 5.57929 0.000853977 7.18428 0.00036599C11.8348 -0.000121997 16.4858 -0.000121997 21.1368 0.00036599C22.7906 0.000853977 23.9979 1.20813 23.9988 2.86387C24.0003 5.31942 24.0003 7.77497 23.9993 10.2305C23.9983 11.8906 22.7994 13.0877 21.1383 13.0911C20.9523 13.0916 20.7669 13.0911 20.6112 13.0911ZM16.2481 6.46716C16.2433 7.63345 15.321 8.54452 14.1464 8.54306C12.9962 8.5416 12.0519 7.59685 12.0519 6.44716C12.0519 5.3038 13.0074 4.34686 14.1488 4.34686C15.3049 4.34686 16.253 5.30429 16.2481 6.46716ZM21.5994 6.44228C21.6072 7.61345 20.6737 8.54452 19.4937 8.54306C18.3401 8.5416 17.4022 7.60076 17.4032 6.44716C17.4042 5.29795 18.3504 4.34833 19.4957 4.34686C20.6371 4.3454 21.5916 5.296 21.5994 6.44228ZM10.9003 6.46668C10.89 7.63931 9.97361 8.5455 8.79951 8.54306C7.64835 8.54111 6.7041 7.59588 6.70459 6.44716C6.70507 5.30283 7.65811 4.34784 8.80146 4.34637C9.95506 4.34491 10.9101 5.30966 10.9003 6.46668Z" fill="#FAC23D"/>
</svg>
