<svg width="16" height="16" viewBox="0 0 16 16" fill="none" xmlns="http://www.w3.org/2000/svg">
<path d="M5.96637 11.4488L5.96614 11.4488C4.94536 11.1889 4.06388 10.6797 3.28032 10.0136C1.92827 11.0394 1.02857 12.3513 0.565096 13.9798L0.565014 13.9801C0.430186 14.4527 0.518163 14.8207 0.70414 15.0634C0.890998 15.3074 1.22953 15.4935 1.73089 15.4942H1.73107C5.77843 15.5019 9.82674 15.5019 13.8751 15.4942C14.4045 15.4931 14.7334 15.3061 14.9064 15.0711C15.0807 14.8346 15.1643 14.458 15.015 13.9427L15.0149 13.9426C14.5627 12.3814 13.6879 11.1084 12.4144 10.0815L5.96637 11.4488ZM5.96637 11.4488C8.25424 12.03 10.3784 11.6042 12.2116 10.0729L12.2118 10.0727M5.96637 11.4488L12.2118 10.0727M12.2118 10.0727C12.2546 10.037 12.2855 10.0155 12.3061 10.003M12.2118 10.0727L12.3061 10.003M12.0906 4.78628L12.0906 4.78609C12.0854 2.39828 10.1836 0.500862 7.79768 0.5C5.41614 0.499139 3.50173 2.40226 3.4869 4.78197L12.0906 4.78628ZM12.0906 4.78628C12.0966 7.15878 10.1858 9.08731 7.81171 9.10462M12.0906 4.78628L7.81171 9.10462M12.3061 10.003C12.3298 10.0172 12.3644 10.0413 12.4141 10.0813L12.3061 10.003ZM7.81171 9.10462C5.44358 9.12096 3.47404 7.15294 3.4869 4.78204L7.81171 9.10462Z" stroke="#3D3D3D"/>
</svg>
