<svg width="49" height="40" viewBox="0 0 49 40" fill="none" xmlns="http://www.w3.org/2000/svg">
<path d="M5.31682 26.7226C3.57344 27.3917 1.85655 28.051 0 28.7637C1.83488 24.6257 3.60956 20.626 5.41555 16.5583C9.43928 18.3667 13.4389 20.1654 17.5445 22.0126C15.6013 22.764 13.764 23.4719 11.9267 24.1821C12.8803 27.6195 16.4272 31.8641 21.9439 32.7998C27.5858 33.7574 33.8682 30.7515 36.2473 24.4076C38.4097 25.193 40.5745 25.9808 42.7393 26.7662C40.6973 32.9477 34.6749 38.785 26.5432 39.8443C18.1634 40.9351 8.80598 36.2663 5.31682 26.7226Z" fill="#F8F8F8"/>
<path d="M12.7575 15.6032C10.5759 14.8105 8.42312 14.0275 6.27038 13.2446C8.10526 7.59154 13.6027 1.61369 21.7417 0.27801C26.4565 -0.495281 30.9209 0.343461 35.0385 2.80878C39.1321 5.25713 41.9807 8.78178 43.6639 13.2906C45.4217 12.6167 47.141 11.9574 49 11.2447C47.1603 15.3899 45.3808 19.3994 43.5844 23.4525C39.5463 21.6368 35.5562 19.8406 31.4603 17.9982C33.3963 17.2492 35.2336 16.5413 37.0685 15.8311C36.1582 12.464 32.6185 8.15151 27.0633 7.21096C21.354 6.24374 15.1269 9.29811 12.7575 15.6032Z" fill="#F8F8F8"/>
</svg>
