<svg width="9" height="15" viewBox="0 0 9 15" fill="none" xmlns="http://www.w3.org/2000/svg">
<path fill-rule="evenodd" clip-rule="evenodd" d="M0.470719 9.45971C0.732781 9.19765 1.12635 9.19765 1.38841 9.45971L3.8218 11.8931L3.8218 0.986851C3.8218 0.616239 4.12224 0.315799 4.49285 0.315799C4.86346 0.315799 5.16391 0.616239 5.16391 0.986851L5.16391 11.8931L7.59729 9.45971C7.85936 9.19765 8.28424 9.19765 8.54631 9.45971C8.80837 9.72178 8.80837 10.1467 8.54631 10.4087L4.96763 13.9874C4.96706 13.988 4.9665 13.9885 4.96593 13.9891C4.90442 14.0502 4.83111 14.0996 4.74972 14.1333C4.82828 14.1008 4.90193 14.0527 4.96593 13.9891M4.02131 13.9906C4.08251 14.0511 4.15527 14.0998 4.23598 14.1333C4.15805 14.1011 4.08496 14.0535 4.02131 13.9906ZM4.01799 13.9873L0.4394 10.4087C0.177338 10.1467 0.208656 9.72178 0.470719 9.45971" fill="#00A3A4"/>
</svg>
