<svg width="16" height="17" viewBox="0 0 16 17" fill="none" xmlns="http://www.w3.org/2000/svg">
<path d="M1.59998 0.000159678L15.9998 14.6594L14.3999 16.2883L0 1.62897L1.59998 0.000159678Z" fill="#3D3D3D"/>
<path d="M0.000170878 14.6593L14.4 0L16 1.62881L1.60016 16.2881L0.000170878 14.6593Z" fill="#3D3D3D"/>
</svg>
