<svg width="19" height="18" viewBox="0 0 19 18" fill="none" xmlns="http://www.w3.org/2000/svg">
<path fill-rule="evenodd" clip-rule="evenodd" d="M9.04548 1.62876C4.99719 1.62876 1.71605 4.9099 1.71605 8.95819C1.71605 10.3638 2.11103 11.675 2.79592 12.7898L3.01662 13.149L1.63787 16.3658L4.85467 14.987L5.21463 15.2077C6.3287 15.8926 7.63985 16.2876 9.04548 16.2876C13.0938 16.2876 16.3749 13.0065 16.3749 8.95819C16.3749 4.9099 13.0938 1.62876 9.04548 1.62876ZM0.0872898 8.95819C0.0872898 4.01082 4.09811 0 9.04548 0C13.9928 0 18.0037 4.01082 18.0037 8.95819C18.0037 13.9055 13.9928 17.9164 9.04548 17.9164C7.48349 17.9164 6.01272 17.5157 4.73252 16.8121L2.2796 17.8634C0.927731 18.4425 -0.4388 17.0759 0.140225 15.7241L1.19159 13.2711C0.487965 11.9909 0.0872898 10.5202 0.0872898 8.95819ZM4.97357 7.32943C4.97357 6.87989 5.33842 6.51504 5.78795 6.51504H8.2311C8.68063 6.51504 9.04548 6.87989 9.04548 7.32943C9.04548 7.77896 8.68063 8.14381 8.2311 8.14381H5.78795C5.33842 8.14381 4.97357 7.77896 4.97357 7.32943ZM4.97357 10.5869C4.97357 10.1374 5.33842 9.77257 5.78795 9.77257H12.303C12.7525 9.77257 13.1174 10.1374 13.1174 10.5869C13.1174 11.0365 12.7525 11.4013 12.303 11.4013H5.78795C5.33842 11.4013 4.97357 11.0365 4.97357 10.5869Z" fill="#B8B8B8"/>
</svg>
