<svg width="107" height="107" viewBox="0 0 107 107" fill="none" xmlns="http://www.w3.org/2000/svg">
<path d="M48.0606 104.91C73.4492 104.91 94.0308 84.3288 94.0308 58.9402C94.0308 33.5515 73.4492 12.9699 48.0606 12.9699C22.6719 12.9699 2.09033 33.5515 2.09033 58.9402C2.09033 84.3288 22.6719 104.91 48.0606 104.91Z" fill="#FFE4A4"/>
<path d="M48.0605 94.0447C67.4482 94.0447 83.165 78.3279 83.165 58.9402C83.165 39.5525 67.4482 23.8357 48.0605 23.8357C28.6729 23.8357 12.9561 39.5525 12.9561 58.9402C12.9561 78.3279 28.6729 94.0447 48.0605 94.0447Z" fill="#7AFEFF"/>
<path d="M48.0607 82.3432C60.9858 82.3432 71.4637 71.8653 71.4637 58.9402C71.4637 46.0151 60.9858 35.5372 48.0607 35.5372C35.1356 35.5372 24.6577 46.0151 24.6577 58.9402C24.6577 71.8653 35.1356 82.3432 48.0607 82.3432Z" fill="#FFE4A4"/>
<path d="M48.0609 71.4776C54.9851 71.4776 60.5983 65.8644 60.5983 58.9402C60.5983 52.016 54.9851 46.4028 48.0609 46.4028C41.1366 46.4028 35.5234 52.016 35.5234 58.9402C35.5234 65.8644 41.1366 71.4776 48.0609 71.4776Z" fill="#FF5A5A"/>
<path d="M86.475 36.5496H70.436V20.5106L88.8566 2.08978V18.1288H104.896L86.475 36.5496Z" fill="#C8F5FF"/>
<path d="M74.1369 85.4635C75.0936 84.5354 74.9308 83.218 74.2202 82.4807C73.5101 81.7434 72.1998 81.5319 71.2366 82.4535C71.2299 82.46 71.223 82.4667 71.2161 82.4734C70.2656 83.4081 70.4374 84.7241 71.1528 85.4566C71.5327 85.8457 72.0809 86.0855 72.655 86.0855C73.1617 86.0855 73.6884 85.8988 74.1369 85.4635Z" fill="black"/>
<path d="M90.4559 41.0149C89.3738 41.4157 88.8214 42.6178 89.2223 43.7001C91.0262 48.5703 91.9407 53.698 91.9407 58.9408C91.9407 83.1367 72.2558 102.821 48.0601 102.821C39.0817 102.821 30.4508 100.129 23.0998 95.0359C22.1516 94.3786 20.8494 94.6146 20.1922 95.5634C19.5347 96.5119 19.7709 97.8137 20.7196 98.471C28.7729 104.051 38.2272 107 48.0601 107C60.8975 107 72.9661 102.001 82.0436 92.9241C91.1209 83.8468 96.12 71.7779 96.12 58.9408C96.12 53.201 95.1179 47.585 93.1416 42.2487C92.7403 41.1664 91.5384 40.6145 90.4559 41.0149Z" fill="black"/>
<path d="M4.17908 58.9406C4.17908 34.7447 23.864 15.06 48.0597 15.06C53.1334 15.06 58.1048 15.9177 62.836 17.6094C63.9225 17.9981 65.1187 17.4322 65.507 16.3455C65.8955 15.2589 65.3296 14.0631 64.2431 13.6744C59.0588 11.8207 53.6141 10.8809 48.0597 10.8809C35.2224 10.8809 23.1537 15.8801 14.0762 24.9573C4.99913 34.0346 0 46.1035 0 58.9406C0 68.8956 3.01691 78.4466 8.72513 86.5611C9.13181 87.1396 9.77862 87.4487 10.4361 87.4487C10.8513 87.4487 11.2708 87.3252 11.6363 87.0679C12.5803 86.4038 12.8072 85.1003 12.1433 84.1565C6.93329 76.7499 4.17908 68.0304 4.17908 58.9406Z" fill="black"/>
<path d="M106.826 17.3292C106.503 16.5484 105.741 16.0393 104.896 16.0393H93.9161L95.0969 14.8585C95.9128 14.0427 95.9128 12.7194 95.0969 11.9033C94.2808 11.0874 92.9579 11.0874 92.1416 11.9033L90.9458 13.0991V2.08976C90.9458 1.24483 90.4365 0.482662 89.656 0.159153C88.8752 -0.164356 87.9762 0.0145354 87.3789 0.612024L68.9581 19.0328C68.5662 19.4247 68.346 19.9561 68.346 20.5103V27.759C62.3186 23.8163 55.3701 21.7465 48.0594 21.7465C27.5506 21.7465 10.8652 38.4319 10.8652 58.9406C10.8652 79.4494 27.5506 96.1347 48.0594 96.1347C54.8664 96.1347 61.5259 94.2783 67.318 90.7665C68.3048 90.1682 68.6195 88.8832 68.0214 87.8963C67.4233 86.9097 66.1382 86.5944 65.1514 87.1929C60.0127 90.3087 54.1024 91.9555 48.0596 91.9555C29.8551 91.9555 15.0445 77.1451 15.0445 58.9404C15.0445 40.7357 29.8551 25.9253 48.0596 25.9253C55.4932 25.9253 62.5042 28.3347 68.3462 32.8929V35.6985L64.5383 39.5065C60.0913 35.7299 54.3375 33.4476 48.0596 33.4476C34.0028 33.4476 22.5669 44.8834 22.5669 58.9402C22.5669 72.9969 34.0028 84.4328 48.0596 84.4328C62.1163 84.4328 73.5522 72.9969 73.5522 58.9402C73.5522 52.6625 71.2701 46.9087 67.4933 42.4615L71.3163 38.6385H74.0962C78.6009 44.4118 81.0744 51.5935 81.0744 58.9402C81.0744 65.1004 79.3672 71.109 76.1376 76.3158C75.5292 77.2964 75.8312 78.5846 76.8122 79.1929C77.1551 79.4057 77.5357 79.507 77.9114 79.507C78.6107 79.507 79.2936 79.1562 79.6893 78.5188C83.3298 72.6498 85.2537 65.8798 85.2537 58.9402C85.2537 51.7225 83.1335 44.6456 79.2247 38.6385H86.4746C87.0288 38.6385 87.5601 38.4183 87.9521 38.0264L106.373 19.6056C106.971 19.0088 107.149 18.1099 106.826 17.3292ZM86.7672 7.13445V17.2782L72.5257 31.5197V21.3759L86.7672 7.13445ZM69.3733 58.9406C69.3733 70.6929 59.8121 80.2542 48.0598 80.2542C36.3075 80.2542 26.7462 70.6929 26.7462 58.9406C26.7462 47.1883 36.3075 37.6271 48.0598 37.6271C53.1851 37.6271 57.8932 39.4459 61.5738 42.4715L56.8148 47.2305C54.3724 45.3996 51.3406 44.3137 48.06 44.3137C39.9946 44.3137 33.4331 50.8755 33.4331 58.9406C33.4331 67.0058 39.9948 73.5675 48.06 73.5675C56.1251 73.5675 62.6869 67.0058 62.6869 58.9406C62.6869 55.66 61.601 52.6282 59.7701 50.1856L64.5291 45.4266C67.5545 49.107 69.3733 53.8153 69.3733 58.9406ZM58.5076 58.9406C58.5076 64.7015 53.8207 69.3884 48.0598 69.3884C42.2989 69.3884 37.612 64.7015 37.612 58.9406C37.612 53.1797 42.2989 48.4928 48.0598 48.4928C50.1862 48.4928 52.1649 49.1329 53.8171 50.2282L46.5823 57.4631C45.7664 58.279 45.7664 59.6023 46.5823 60.4183C46.9904 60.8265 47.525 61.0305 48.0598 61.0305C48.5946 61.0305 49.1292 60.8265 49.5373 60.4183L56.7722 53.1835C57.8675 54.8355 58.5076 56.8142 58.5076 58.9406ZM85.6094 34.4599H75.4958L89.7373 20.2184H99.8509L85.6094 34.4599Z" fill="black"/>
<path d="M15.513 89.3139C14.9611 89.3139 14.4221 89.5375 14.0357 89.9262C13.6449 90.3149 13.4233 90.8539 13.4233 91.4036C13.4233 91.9532 13.6449 92.4922 14.0357 92.8809C14.4242 93.2696 14.9613 93.4932 15.513 93.4932C16.0626 93.4932 16.6016 93.2696 16.9901 92.8809C17.3788 92.4922 17.6026 91.9532 17.6026 91.4036C17.6026 90.8539 17.379 90.317 16.9901 89.9262C16.6016 89.5377 16.0624 89.3139 15.513 89.3139Z" fill="black"/>
</svg>
