<svg width="51" height="177" viewBox="0 0 51 177" fill="none" xmlns="http://www.w3.org/2000/svg">
<path fill-rule="evenodd" clip-rule="evenodd" d="M17.3108 119.458C16.7275 119.458 16.2546 119.918 16.2546 120.485C16.2546 121.052 16.7275 121.512 17.3108 121.512C17.8941 121.512 18.3669 121.052 18.3669 120.485C18.3669 119.918 17.8941 119.458 17.3108 119.458ZM10.2398 1.89868C10.2395 2.46591 9.7666 2.92572 9.18329 2.92572C8.60005 2.92572 8.12715 2.46591 8.12715 1.89868C8.12715 1.3315 8.60005 0.871643 9.18329 0.871643C9.7666 0.871643 10.2395 1.3315 10.2395 1.89868H10.2398ZM2.11262 1.89868C2.11228 2.46591 1.63938 2.92572 1.05614 2.92572C0.472895 2.92572 0 2.46591 0 1.89868C0 1.3315 0.472895 0.871643 1.05614 0.871643C1.63938 0.871643 2.11228 1.3315 2.11228 1.89868H2.11262ZM10.2398 9.80196C10.2395 10.3691 9.7666 10.829 9.18329 10.829C8.60005 10.829 8.12715 10.3691 8.12715 9.80196C8.12715 9.23473 8.60005 8.77486 9.18329 8.77486C9.7666 8.77486 10.2395 9.23473 10.2395 9.80196H10.2398ZM2.11262 9.80196C2.11228 10.3691 1.63938 10.829 1.05614 10.829C0.472895 10.829 0 10.3691 0 9.80196C0 9.23473 0.472895 8.77486 1.05614 8.77486C1.63938 8.77486 2.11228 9.23473 2.11228 9.80196H2.11262ZM10.2398 17.7177C10.2395 18.2849 9.7666 18.7447 9.18329 18.7447C8.60005 18.7447 8.12715 18.2849 8.12715 17.7177C8.12715 17.1505 8.60005 16.6907 9.18329 16.6907C9.7666 16.6907 10.2395 17.1505 10.2395 17.7177H10.2398ZM2.11262 17.7177C2.10522 18.2798 1.63423 18.7322 1.05614 18.7322C0.472895 18.7322 0 18.2723 0 17.7052C0 17.138 0.472895 16.6781 1.05614 16.6781C1.63938 16.6781 2.11228 17.138 2.11228 17.7052C2.11228 17.7093 2.11228 17.7138 2.11228 17.7177H2.11262ZM10.2398 25.6209C10.2395 26.1881 9.7666 26.6479 9.18329 26.6479C8.60005 26.6479 8.12715 26.1881 8.12715 25.6209C8.12715 25.0537 8.60005 24.5939 9.18329 24.5939C9.7666 24.5939 10.2395 25.0537 10.2395 25.6209H10.2398ZM2.11262 25.6209C2.10522 26.1831 1.63423 26.6354 1.05614 26.6354C0.472895 26.6354 0 26.1756 0 25.6084C0 25.0412 0.472895 24.5813 1.05614 24.5813C1.63938 24.5813 2.11228 25.0412 2.11228 25.6084C2.11228 25.6126 2.11228 25.617 2.11228 25.6209H2.11262ZM10.2398 33.5241C10.2395 34.0914 9.7666 34.5512 9.18329 34.5512C8.60005 34.5512 8.12715 34.0914 8.12715 33.5241C8.12715 32.957 8.60005 32.4971 9.18329 32.4971C9.7666 32.4971 10.2395 32.957 10.2395 33.5241H10.2398ZM2.11262 33.5241C2.11228 34.0914 1.63938 34.5512 1.05614 34.5512C0.472895 34.5512 0 34.0914 0 33.5241C0 32.957 0.472895 32.4971 1.05614 32.4971C1.63938 32.4971 2.11228 32.957 2.11228 33.5241H2.11262ZM10.2398 41.4149C10.2395 41.982 9.7666 42.4419 9.18329 42.4419C8.60005 42.4419 8.12715 41.982 8.12715 41.4149C8.12715 40.8477 8.60005 40.3878 9.18329 40.3878C9.7666 40.3878 10.2395 40.8477 10.2395 41.4149H10.2398ZM2.11262 41.4149C2.11228 41.982 1.63938 42.4419 1.05614 42.4419C0.472895 42.4419 0 41.982 0 41.4149C0 40.8477 0.472895 40.3878 1.05614 40.3878C1.63938 40.3878 2.11228 40.8477 2.11228 41.4149H2.11262ZM10.2398 49.3306C10.2395 49.8979 9.7666 50.3577 9.18329 50.3577C8.60005 50.3577 8.12715 49.8979 8.12715 49.3306C8.12715 48.7634 8.60005 48.3036 9.18329 48.3036C9.7666 48.3036 10.2395 48.7634 10.2395 49.3306H10.2398ZM2.11262 49.3306C2.11228 49.8979 1.63938 50.3577 1.05614 50.3577C0.472895 50.3577 0 49.8979 0 49.3306C0 48.7634 0.472895 48.3036 1.05614 48.3036C1.63938 48.3036 2.11228 48.7634 2.11228 49.3306H2.11262ZM10.2398 57.2464C10.2395 57.8136 9.7666 58.2734 9.18329 58.2734C8.60005 58.2734 8.12715 57.8136 8.12715 57.2464C8.12715 56.6792 8.60005 56.2193 9.18329 56.2193C9.7666 56.2193 10.2395 56.6792 10.2395 57.2464H10.2398ZM2.11262 57.2464C2.10522 57.8085 1.63423 58.2609 1.05614 58.2609C0.472895 58.2609 0 57.8011 0 57.2338C0 56.6667 0.472895 56.2068 1.05614 56.2068C1.63938 56.2068 2.11228 56.6667 2.11228 57.2338C2.11228 57.2381 2.11228 57.2425 2.11228 57.2464H2.11262ZM10.2398 128.401C10.2395 128.967 9.7666 129.427 9.18329 129.427C8.60005 129.427 8.12715 128.967 8.12715 128.4C8.12715 127.833 8.60005 127.373 9.18329 127.373C9.7666 127.373 10.2395 127.833 10.2395 128.4L10.2398 128.401ZM2.11262 128.401C2.10522 128.962 1.63423 129.415 1.05614 129.415C0.472895 129.415 0 128.955 0 128.388C0 127.821 0.472895 127.361 1.05614 127.361C1.63938 127.361 2.11228 127.821 2.11228 128.388C2.11228 128.392 2.11228 128.396 2.11228 128.4L2.11262 128.401ZM10.2398 136.304C10.2395 136.871 9.7666 137.331 9.18329 137.331C8.60005 137.331 8.12715 136.871 8.12715 136.303C8.12715 135.736 8.60005 135.276 9.18329 135.276C9.7666 135.276 10.2395 135.736 10.2395 136.303L10.2398 136.304ZM2.11262 136.304C2.10522 136.866 1.63423 137.318 1.05614 137.318C0.472895 137.318 0 136.858 0 136.291C0 135.724 0.472895 135.264 1.05614 135.264C1.63938 135.264 2.11228 135.724 2.11228 136.291C2.11228 136.295 2.11228 136.3 2.11228 136.303L2.11262 136.304ZM10.2398 144.207C10.2395 144.774 9.7666 145.234 9.18329 145.234C8.60005 145.234 8.12715 144.774 8.12715 144.207C8.12715 143.64 8.60005 143.18 9.18329 143.18C9.7666 143.18 10.2395 143.64 10.2395 144.207L10.2398 144.207ZM2.11262 144.207C2.11228 144.774 1.63938 145.234 1.05614 145.234C0.472895 145.234 0 144.774 0 144.207C0 143.64 0.472895 143.18 1.05614 143.18C1.63938 143.18 2.11228 143.64 2.11228 144.207L2.11262 144.207ZM10.2398 152.11C10.2395 152.677 9.7666 153.137 9.18329 153.137C8.60005 153.137 8.12715 152.677 8.12715 152.11C8.12715 151.543 8.60005 151.083 9.18329 151.083C9.7666 151.083 10.2395 151.543 10.2395 152.11L10.2398 152.11ZM2.11262 152.11C2.11228 152.677 1.63938 153.137 1.05614 153.137C0.472895 153.137 0 152.677 0 152.11C0 151.543 0.472895 151.083 1.05614 151.083C1.63938 151.083 2.11228 151.543 2.11228 152.11L2.11262 152.11ZM10.2398 160.013C10.2395 160.58 9.7666 161.04 9.18329 161.04C8.60005 161.04 8.12715 160.58 8.12715 160.013C8.12715 159.446 8.60005 158.986 9.18329 158.986C9.7666 158.986 10.2395 159.446 10.2395 160.013L10.2398 160.013ZM2.11262 160.013C2.11228 160.58 1.63938 161.04 1.05614 161.04C0.472895 161.04 0 160.58 0 160.013C0 159.446 0.472895 158.986 1.05614 158.986C1.63938 158.986 2.11228 159.446 2.11228 160.013L2.11262 160.013ZM10.2398 167.917C10.2395 168.484 9.7666 168.943 9.18329 168.943C8.60005 168.943 8.12715 168.484 8.12715 167.916C8.12715 167.349 8.60005 166.889 9.18329 166.889C9.7666 166.889 10.2395 167.349 10.2395 167.916L10.2398 167.917ZM2.11262 167.917C2.10522 168.479 1.63423 168.931 1.05614 168.931C0.472895 168.931 0 168.471 0 167.904C0 167.337 0.472895 166.877 1.05614 166.877C1.63938 166.877 2.11228 167.337 2.11228 167.904C2.11228 167.908 2.11228 167.913 2.11228 167.916L2.11262 167.917ZM10.2398 175.832C10.2395 176.399 9.7666 176.859 9.18329 176.859C8.60005 176.859 8.12715 176.399 8.12715 175.832C8.12715 175.265 8.60005 174.805 9.18329 174.805C9.7666 174.805 10.2395 175.265 10.2395 175.832L10.2398 175.832ZM2.11262 175.832C2.11228 176.399 1.63938 176.859 1.05614 176.859C0.472895 176.859 0 176.399 0 175.832C0 175.265 0.472895 174.805 1.05614 174.805C1.63938 174.805 2.11228 175.265 2.11228 175.832L2.11262 175.832ZM50.8885 128.401C50.8882 128.967 50.4153 129.427 49.8321 129.427C49.2488 129.427 48.7759 128.967 48.7759 128.4C48.7759 127.833 49.2488 127.373 49.8321 127.373C50.4153 127.373 50.8882 127.833 50.8882 128.4L50.8885 128.401ZM42.7613 128.401C42.754 128.962 42.2829 129.415 41.7049 129.415C41.1216 129.415 40.6488 128.955 40.6488 128.388C40.6488 127.821 41.1216 127.361 41.7049 127.361C42.2882 127.361 42.7611 127.821 42.7611 128.388C42.7611 128.392 42.7611 128.396 42.7611 128.4L42.7613 128.401ZM34.6342 128.401C34.6338 128.974 34.1552 129.44 33.5648 129.44C32.9745 129.44 32.4958 128.974 32.4958 128.4C32.4958 127.826 32.9745 127.361 33.5648 127.361C33.5691 127.361 33.5738 127.361 33.5777 127.361C34.161 127.361 34.6338 127.821 34.6338 128.388C34.6338 128.392 34.6338 128.396 34.6338 128.4L34.6342 128.401ZM26.507 128.401C26.5067 128.974 26.028 129.44 25.4377 129.44C24.8474 129.44 24.3686 128.974 24.3686 128.4C24.3686 127.826 24.8474 127.361 25.4377 127.361C25.4419 127.361 25.4466 127.361 25.4506 127.361C26.0338 127.361 26.5067 127.821 26.5067 128.388C26.5067 128.392 26.5067 128.396 26.5067 128.4L26.507 128.401ZM18.3798 128.401C18.3795 128.974 17.9008 129.44 17.3105 129.44C16.7201 129.44 16.2415 128.974 16.2415 128.4C16.2415 127.826 16.7201 127.361 17.3105 127.361C17.9008 127.361 18.3795 127.826 18.3795 128.4L18.3798 128.401ZM50.8885 136.304C50.8882 136.871 50.4153 137.331 49.8321 137.331C49.2488 137.331 48.7759 136.871 48.7759 136.303C48.7759 135.736 49.2488 135.276 49.8321 135.276C50.4153 135.276 50.8882 135.736 50.8882 136.303L50.8885 136.304ZM42.7613 136.304C42.754 136.866 42.2829 137.318 41.7049 137.318C41.1216 137.318 40.6488 136.858 40.6488 136.291C40.6488 135.724 41.1216 135.264 41.7049 135.264C42.2882 135.264 42.7611 135.724 42.7611 136.291C42.7611 136.295 42.7611 136.3 42.7611 136.303L42.7613 136.304ZM34.6342 136.304C34.6338 136.878 34.1552 137.343 33.5648 137.343C32.9745 137.343 32.4958 136.878 32.4958 136.303C32.4958 135.729 32.9745 135.264 33.5648 135.264C33.5691 135.264 33.5738 135.264 33.5777 135.264C34.161 135.264 34.6338 135.724 34.6338 136.291C34.6338 136.295 34.6338 136.3 34.6338 136.303L34.6342 136.304ZM26.507 136.304C26.5067 136.878 26.028 137.343 25.4377 137.343C24.8474 137.343 24.3686 136.878 24.3686 136.303C24.3686 135.729 24.8474 135.264 25.4377 135.264C25.4419 135.264 25.4466 135.264 25.4506 135.264C26.0338 135.264 26.5067 135.724 26.5067 136.291C26.5067 136.295 26.5067 136.3 26.5067 136.303L26.507 136.304ZM18.3798 136.304C18.3795 136.878 17.9008 137.343 17.3105 137.343C16.7201 137.343 16.2415 136.878 16.2415 136.303C16.2415 135.729 16.7201 135.264 17.3105 135.264C17.9008 135.264 18.3795 135.729 18.3795 136.303L18.3798 136.304ZM50.8885 144.207C50.8882 144.774 50.4153 145.234 49.8321 145.234C49.2488 145.234 48.7759 144.774 48.7759 144.207C48.7759 143.64 49.2488 143.18 49.8321 143.18C50.4153 143.18 50.8882 143.64 50.8882 144.207L50.8885 144.207ZM42.7613 144.207C42.7611 144.774 42.2882 145.234 41.7049 145.234C41.1216 145.234 40.6488 144.774 40.6488 144.207C40.6488 143.64 41.1216 143.18 41.7049 143.18C42.2882 143.18 42.7611 143.64 42.7611 144.207L42.7613 144.207ZM33.578 143.18C32.9947 143.18 32.5219 143.64 32.5219 144.207C32.5219 144.774 32.9947 145.234 33.578 145.234C34.1613 145.234 34.6342 144.774 34.6342 144.207C34.6342 143.64 34.1613 143.18 33.578 143.18ZM25.4508 143.18C24.8676 143.18 24.3947 143.64 24.3947 144.207C24.3947 144.774 24.8676 145.234 25.4508 145.234C26.0341 145.234 26.507 144.774 26.507 144.207C26.507 143.64 26.0341 143.18 25.4508 143.18ZM17.3108 143.18C16.7275 143.18 16.2546 143.64 16.2546 144.207C16.2546 144.774 16.7275 145.234 17.3108 145.234C17.8941 145.234 18.3669 144.774 18.3669 144.207C18.3669 143.64 17.8941 143.18 17.3108 143.18ZM50.8885 152.11C50.8882 152.677 50.4153 153.137 49.8321 153.137C49.2488 153.137 48.7759 152.677 48.7759 152.11C48.7759 151.543 49.2488 151.083 49.8321 151.083C50.4153 151.083 50.8882 151.543 50.8882 152.11L50.8885 152.11ZM42.7613 152.11C42.7611 152.677 42.2882 153.137 41.7049 153.137C41.1216 153.137 40.6488 152.677 40.6488 152.11C40.6488 151.543 41.1216 151.083 41.7049 151.083C42.2882 151.083 42.7611 151.543 42.7611 152.11L42.7613 152.11ZM33.578 151.083C32.9947 151.083 32.5219 151.543 32.5219 152.11C32.5219 152.677 32.9947 153.137 33.578 153.137C34.1613 153.137 34.6342 152.677 34.6342 152.11C34.6342 151.543 34.1613 151.083 33.578 151.083ZM25.4508 151.083C24.8676 151.083 24.3947 151.543 24.3947 152.11C24.3947 152.677 24.8676 153.137 25.4508 153.137C26.0341 153.137 26.507 152.677 26.507 152.11C26.507 151.543 26.0341 151.083 25.4508 151.083ZM17.3108 151.083C16.7275 151.083 16.2546 151.543 16.2546 152.11C16.2546 152.677 16.7275 153.137 17.3108 153.137C17.8941 153.137 18.3669 152.677 18.3669 152.11C18.3669 151.543 17.8941 151.083 17.3108 151.083ZM50.8885 160.013C50.8882 160.58 50.4153 161.04 49.8321 161.04C49.2488 161.04 48.7759 160.58 48.7759 160.013C48.7759 159.446 49.2488 158.986 49.8321 158.986C50.4153 158.986 50.8882 159.446 50.8882 160.013L50.8885 160.013ZM42.7613 160.013C42.7611 160.58 42.2882 161.04 41.7049 161.04C41.1216 161.04 40.6488 160.58 40.6488 160.013C40.6488 159.446 41.1216 158.986 41.7049 158.986C42.2882 158.986 42.7611 159.446 42.7611 160.013L42.7613 160.013ZM33.578 158.986C32.9947 158.986 32.5219 159.446 32.5219 160.013C32.5219 160.581 32.9947 161.041 33.578 161.041C34.1613 161.041 34.6342 160.581 34.6342 160.013C34.6342 159.446 34.1613 158.986 33.578 158.986ZM25.4508 158.986C24.8676 158.986 24.3947 159.446 24.3947 160.013C24.3947 160.581 24.8676 161.041 25.4508 161.041C26.0341 161.041 26.507 160.581 26.507 160.013C26.507 159.446 26.0341 158.986 25.4508 158.986ZM17.3108 158.986C16.7275 158.986 16.2546 159.446 16.2546 160.013C16.2546 160.581 16.7275 161.041 17.3108 161.041C17.8941 161.041 18.3669 160.581 18.3669 160.013C18.3669 159.446 17.8941 158.986 17.3108 158.986ZM50.8885 167.917C50.8882 168.484 50.4153 168.943 49.8321 168.943C49.2488 168.943 48.7759 168.484 48.7759 167.916C48.7759 167.349 49.2488 166.889 49.8321 166.889C50.4153 166.889 50.8882 167.349 50.8882 167.916L50.8885 167.917ZM42.7613 167.917C42.754 168.479 42.2829 168.931 41.7049 168.931C41.1216 168.931 40.6488 168.471 40.6488 167.904C40.6488 167.337 41.1216 166.877 41.7049 166.877C42.2882 166.877 42.7611 167.337 42.7611 167.904C42.7611 167.908 42.7611 167.913 42.7611 167.916L42.7613 167.917ZM34.6342 167.917C34.6338 168.491 34.1552 168.956 33.5648 168.956C32.9745 168.956 32.4958 168.491 32.4958 167.916C32.4958 167.342 32.9745 166.877 33.5648 166.877C33.5691 166.877 33.5738 166.877 33.5777 166.877C34.161 166.877 34.6338 167.337 34.6338 167.904C34.6338 167.908 34.6338 167.913 34.6338 167.916L34.6342 167.917ZM26.507 167.917C26.5067 168.491 26.028 168.956 25.4377 168.956C24.8474 168.956 24.3686 168.491 24.3686 167.916C24.3686 167.342 24.8474 166.877 25.4377 166.877C25.4419 166.877 25.4466 166.877 25.4506 166.877C26.0338 166.877 26.5067 167.337 26.5067 167.904C26.5067 167.908 26.5067 167.913 26.5067 167.916L26.507 167.917ZM18.3798 167.917C18.3795 168.491 17.9008 168.956 17.3105 168.956C16.7201 168.956 16.2415 168.491 16.2415 167.916C16.2415 167.342 16.7201 166.877 17.3105 166.877C17.9008 166.877 18.3795 167.342 18.3795 167.916L18.3798 167.917ZM50.8885 175.832C50.8882 176.399 50.4153 176.859 49.8321 176.859C49.2488 176.859 48.7759 176.399 48.7759 175.832C48.7759 175.265 49.2488 174.805 49.8321 174.805C50.4153 174.805 50.8882 175.265 50.8882 175.832L50.8885 175.832ZM42.7613 175.832C42.7611 176.399 42.2882 176.859 41.7049 176.859C41.1216 176.859 40.6488 176.399 40.6488 175.832C40.6488 175.265 41.1216 174.805 41.7049 174.805C42.2882 174.805 42.7611 175.265 42.7611 175.832L42.7613 175.832ZM34.6342 175.832C34.6338 175.836 34.6338 175.841 34.6338 175.845C34.6338 176.419 34.1552 176.884 33.5648 176.884C32.9745 176.884 32.4958 176.419 32.4958 175.845C32.4958 175.271 32.9745 174.805 33.5648 174.805C33.5691 174.805 33.5738 174.805 33.5777 174.805C34.161 174.805 34.6338 175.265 34.6338 175.832L34.6342 175.832ZM26.507 175.832C26.5067 175.836 26.5067 175.841 26.5067 175.845C26.5067 176.419 26.028 176.884 25.4377 176.884C24.8474 176.884 24.3686 176.419 24.3686 175.845C24.3686 175.271 24.8474 174.805 25.4377 174.805C25.4419 174.805 25.4466 174.805 25.4506 174.805C26.0338 174.805 26.5067 175.265 26.5067 175.832L26.507 175.832ZM18.3798 175.832C18.32 176.359 17.8619 176.758 17.317 176.758C16.772 176.758 16.3138 176.359 16.2544 175.832C16.3138 175.305 16.772 174.907 17.317 174.907C17.8619 174.907 18.32 175.305 18.3795 175.832L18.3798 175.832ZM10.2398 65.1496C10.2395 65.7168 9.7666 66.1767 9.18329 66.1767C8.60005 66.1767 8.12715 65.7168 8.12715 65.1496C8.12715 64.5824 8.60005 64.1225 9.18329 64.1225C9.7666 64.1225 10.2395 64.5824 10.2395 65.1496H10.2398ZM2.11262 65.1496C2.11228 65.7168 1.63938 66.1767 1.05614 66.1767C0.472895 66.1767 0 65.7168 0 65.1496C0 64.5824 0.472895 64.1225 1.05614 64.1225C1.63938 64.1225 2.11228 64.5824 2.11228 65.1496H2.11262ZM10.2398 73.0529C10.2395 73.62 9.7666 74.0799 9.18329 74.0799C8.60005 74.0799 8.12715 73.62 8.12715 73.0529C8.12715 72.4857 8.60005 72.0258 9.18329 72.0258C9.7666 72.0258 10.2395 72.4857 10.2395 73.0529H10.2398ZM2.11262 73.0529C2.11228 73.62 1.63938 74.0799 1.05614 74.0799C0.472895 74.0799 0 73.62 0 73.0529C0 72.4857 0.472895 72.0258 1.05614 72.0258C1.63938 72.0258 2.11228 72.4857 2.11228 73.0529H2.11262ZM10.2398 80.9561C10.2395 81.5233 9.7666 81.9831 9.18329 81.9831C8.60005 81.9831 8.12715 81.5233 8.12715 80.9561C8.12715 80.3889 8.60005 79.929 9.18329 79.929C9.7666 79.929 10.2395 80.3889 10.2395 80.9561H10.2398ZM2.11262 80.9561C2.11228 81.5233 1.63938 81.9831 1.05614 81.9831C0.472895 81.9831 0 81.5233 0 80.9561C0 80.3889 0.472895 79.929 1.05614 79.929C1.63938 79.929 2.11228 80.3889 2.11228 80.9561H2.11262ZM10.2398 88.8718C10.2395 89.4391 9.7666 89.8989 9.18329 89.8989C8.60005 89.8989 8.12715 89.4391 8.12715 88.8718C8.12715 88.3046 8.60005 87.8448 9.18329 87.8448C9.7666 87.8448 10.2395 88.3046 10.2395 88.8718H10.2398ZM2.11262 88.8718C2.10522 89.434 1.63423 89.8864 1.05614 89.8864C0.472895 89.8864 0 89.4265 0 88.8593C0 88.2921 0.472895 87.8323 1.05614 87.8323C1.63938 87.8323 2.11228 88.2921 2.11228 88.8593C2.11228 88.8635 2.11228 88.868 2.11228 88.8718H2.11262ZM10.2398 96.7751C10.2395 97.3423 9.7666 97.8021 9.18329 97.8021C8.60005 97.8021 8.12715 97.3423 8.12715 96.7751C8.12715 96.2079 8.60005 95.7481 9.18329 95.7481C9.7666 95.7481 10.2395 96.2079 10.2395 96.7751H10.2398ZM2.11262 96.7751C2.10522 97.3372 1.63423 97.7896 1.05614 97.7896C0.472895 97.7896 0 97.3297 0 96.7626C0 96.1954 0.472895 95.7355 1.05614 95.7355C1.63938 95.7355 2.11228 96.1954 2.11228 96.7626C2.11228 96.7667 2.11228 96.7712 2.11228 96.7751H2.11262ZM10.2398 104.678C10.2395 105.246 9.7666 105.705 9.18329 105.705C8.60005 105.705 8.12715 105.246 8.12715 104.678C8.12715 104.111 8.60005 103.651 9.18329 103.651C9.7666 103.651 10.2395 104.111 10.2395 104.678H10.2398ZM2.11262 104.678C2.11228 105.246 1.63938 105.705 1.05614 105.705C0.472895 105.705 0 105.246 0 104.678C0 104.111 0.472895 103.651 1.05614 103.651C1.63938 103.651 2.11228 104.111 2.11228 104.678H2.11262ZM10.2398 112.582C10.2395 113.148 9.7666 113.608 9.18329 113.608C8.60005 113.608 8.12715 113.148 8.12715 112.581C8.12715 112.014 8.60005 111.554 9.18329 111.554C9.7666 111.554 10.2395 112.014 10.2395 112.581L10.2398 112.582ZM2.11262 112.582C2.11228 113.148 1.63938 113.608 1.05614 113.608C0.472895 113.608 0 113.148 0 112.581C0 112.014 0.472895 111.554 1.05614 111.554C1.63938 111.554 2.11228 112.014 2.11228 112.581L2.11262 112.582ZM10.2398 120.485C10.2395 121.052 9.7666 121.512 9.18329 121.512C8.60005 121.512 8.12715 121.052 8.12715 120.484C8.12715 119.917 8.60005 119.457 9.18329 119.457C9.7666 119.457 10.2395 119.917 10.2395 120.484L10.2398 120.485ZM2.11262 120.485C2.11228 121.052 1.63938 121.512 1.05614 121.512C0.472895 121.512 0 121.052 0 120.484C0 119.917 0.472895 119.457 1.05614 119.457C1.63938 119.457 2.11228 119.917 2.11228 120.484L2.11262 120.485ZM50.8885 1.89868C50.8882 2.46591 50.4153 2.92572 49.8321 2.92572C49.2488 2.92572 48.7759 2.46591 48.7759 1.89868C48.7759 1.3315 49.2488 0.871643 49.8321 0.871643C50.4153 0.871643 50.8882 1.3315 50.8882 1.89868H50.8885ZM42.7613 1.89868C42.7611 2.46591 42.2882 2.92572 41.7049 2.92572C41.1216 2.92572 40.6488 2.46591 40.6488 1.89868C40.6488 1.3315 41.1216 0.871643 41.7049 0.871643C42.2882 0.871643 42.7611 1.3315 42.7611 1.89868H42.7613ZM33.578 0.871643C32.9947 0.871643 32.5219 1.3315 32.5219 1.89868C32.5219 2.46591 32.9947 2.92572 33.578 2.92572C34.1613 2.92572 34.6342 2.46591 34.6342 1.89868C34.6342 1.3315 34.1613 0.871643 33.578 0.871643ZM25.4508 0.871643C24.8676 0.871643 24.3947 1.3315 24.3947 1.89868C24.3947 2.46591 24.8676 2.92572 25.4508 2.92572C26.0341 2.92572 26.507 2.46591 26.507 1.89868C26.507 1.3315 26.0341 0.871643 25.4508 0.871643ZM17.3108 0.871643C16.7275 0.871643 16.2546 1.3315 16.2546 1.89868C16.2546 2.46591 16.7275 2.92572 17.3108 2.92572C17.8941 2.92572 18.3669 2.46591 18.3669 1.89868C18.3669 1.3315 17.8941 0.871643 17.3108 0.871643ZM50.8885 9.80196C50.8882 10.3691 50.4153 10.829 49.8321 10.829C49.2488 10.829 48.7759 10.3691 48.7759 9.80196C48.7759 9.23473 49.2488 8.77486 49.8321 8.77486C50.4153 8.77486 50.8882 9.23473 50.8882 9.80196H50.8885ZM42.7613 9.80196C42.7611 10.3691 42.2882 10.829 41.7049 10.829C41.1216 10.829 40.6488 10.3691 40.6488 9.80196C40.6488 9.23473 41.1216 8.77486 41.7049 8.77486C42.2882 8.77486 42.7611 9.23473 42.7611 9.80196H42.7613ZM34.6342 9.80196C34.6338 9.80579 34.6338 9.81027 34.6338 9.81442C34.6338 10.3885 34.1552 10.854 33.5648 10.854C32.9745 10.854 32.4958 10.3885 32.4958 9.81442C32.4958 9.24039 32.9745 8.77486 33.5648 8.77486C33.5691 8.77486 33.5738 8.77486 33.5777 8.77486C34.158 8.78171 34.6268 9.23769 34.6338 9.80196H34.6342ZM26.507 9.80196C26.5067 9.80579 26.5067 9.81027 26.5067 9.81442C26.5067 10.3885 26.028 10.854 25.4377 10.854C24.8474 10.854 24.3686 10.3885 24.3686 9.81442C24.3686 9.24039 24.8474 8.77486 25.4377 8.77486C25.4419 8.77486 25.4466 8.77486 25.4506 8.77486C26.0307 8.78171 26.4996 9.23769 26.5067 9.80196H26.507ZM18.3798 9.80196C18.3795 9.80579 18.3795 9.81027 18.3795 9.81442C18.3795 10.3885 17.9008 10.854 17.3105 10.854C16.7201 10.854 16.2415 10.3885 16.2415 9.81442C16.2415 9.24039 16.7201 8.77486 17.3105 8.77486C17.8959 8.77486 18.3725 9.23294 18.3795 9.80196H18.3798ZM50.8885 17.7177C50.8882 18.2849 50.4153 18.7447 49.8321 18.7447C49.2488 18.7447 48.7759 18.2849 48.7759 17.7177C48.7759 17.1505 49.2488 16.6907 49.8321 16.6907C50.4153 16.6907 50.8882 17.1505 50.8882 17.7177H50.8885ZM42.7613 17.7177C42.754 18.2798 42.2829 18.7322 41.7049 18.7322C41.1216 18.7322 40.6488 18.2723 40.6488 17.7052C40.6488 17.138 41.1216 16.6781 41.7049 16.6781C42.2882 16.6781 42.7611 17.138 42.7611 17.7052C42.7611 17.7093 42.7611 17.7138 42.7611 17.7177H42.7613ZM34.6342 17.7177C34.6338 18.2917 34.1552 18.7573 33.5648 18.7573C32.9745 18.7573 32.4958 18.2917 32.4958 17.7177C32.4958 17.1436 32.9745 16.6781 33.5648 16.6781C33.5691 16.6781 33.5738 16.6781 33.5777 16.6781C34.161 16.6781 34.6338 17.138 34.6338 17.7052C34.6338 17.7093 34.6338 17.7138 34.6338 17.7177H34.6342ZM26.507 17.7177C26.5067 18.2917 26.028 18.7573 25.4377 18.7573C24.8474 18.7573 24.3686 18.2917 24.3686 17.7177C24.3686 17.1436 24.8474 16.6781 25.4377 16.6781C25.4419 16.6781 25.4466 16.6781 25.4506 16.6781C26.0338 16.6781 26.5067 17.138 26.5067 17.7052C26.5067 17.7093 26.5067 17.7138 26.5067 17.7177H26.507ZM18.3798 17.7177C18.3795 18.2917 17.9008 18.7573 17.3105 18.7573C16.7201 18.7573 16.2415 18.2917 16.2415 17.7177C16.2415 17.1436 16.7201 16.6781 17.3105 16.6781C17.9008 16.6781 18.3795 17.1436 18.3795 17.7177H18.3798ZM50.8885 25.6209C50.8882 26.1881 50.4153 26.6479 49.8321 26.6479C49.2488 26.6479 48.7759 26.1881 48.7759 25.6209C48.7759 25.0537 49.2488 24.5939 49.8321 24.5939C50.4153 24.5939 50.8882 25.0537 50.8882 25.6209H50.8885ZM42.7613 25.6209C42.754 26.1831 42.2829 26.6354 41.7049 26.6354C41.1216 26.6354 40.6488 26.1756 40.6488 25.6084C40.6488 25.0412 41.1216 24.5813 41.7049 24.5813C42.2882 24.5813 42.7611 25.0412 42.7611 25.6084C42.7611 25.6126 42.7611 25.617 42.7611 25.6209H42.7613ZM34.6342 25.6209C34.6338 26.195 34.1552 26.6605 33.5648 26.6605C32.9745 26.6605 32.4958 26.195 32.4958 25.6209C32.4958 25.0469 32.9745 24.5813 33.5648 24.5813C33.5691 24.5813 33.5738 24.5813 33.5777 24.5813C34.161 24.5813 34.6338 25.0412 34.6338 25.6084C34.6338 25.6126 34.6338 25.617 34.6338 25.6209H34.6342ZM26.507 25.6209C26.5067 26.195 26.028 26.6605 25.4377 26.6605C24.8474 26.6605 24.3686 26.195 24.3686 25.6209C24.3686 25.0469 24.8474 24.5813 25.4377 24.5813C25.4419 24.5813 25.4466 24.5813 25.4506 24.5813C26.0338 24.5813 26.5067 25.0412 26.5067 25.6084C26.5067 25.6126 26.5067 25.617 26.5067 25.6209H26.507ZM18.3798 25.6209C18.3795 26.195 17.9008 26.6605 17.3105 26.6605C16.7201 26.6605 16.2415 26.195 16.2415 25.6209C16.2415 25.0469 16.7201 24.5813 17.3105 24.5813C17.9008 24.5813 18.3795 25.0469 18.3795 25.6209H18.3798ZM50.8885 33.5241C50.8882 34.0914 50.4153 34.5512 49.8321 34.5512C49.2488 34.5512 48.7759 34.0914 48.7759 33.5241C48.7759 32.957 49.2488 32.4971 49.8321 32.4971C50.4153 32.4971 50.8882 32.957 50.8882 33.5241H50.8885ZM42.7613 33.5241C42.7611 34.0914 42.2882 34.5512 41.7049 34.5512C41.1216 34.5512 40.6488 34.0914 40.6488 33.5241C40.6488 32.957 41.1216 32.4971 41.7049 32.4971C42.2882 32.4971 42.7611 32.957 42.7611 33.5241H42.7613ZM33.578 32.4971C32.9947 32.4971 32.5219 32.957 32.5219 33.5241C32.5219 34.0914 32.9947 34.5512 33.578 34.5512C34.1613 34.5512 34.6342 34.0914 34.6342 33.5241C34.6342 32.957 34.1613 32.4971 33.578 32.4971ZM25.4508 32.4971C24.8676 32.4971 24.3947 32.957 24.3947 33.5241C24.3947 34.0914 24.8676 34.5512 25.4508 34.5512C26.0341 34.5512 26.507 34.0914 26.507 33.5241C26.507 32.957 26.0341 32.4971 25.4508 32.4971ZM17.3108 32.4971C16.7275 32.4971 16.2546 32.957 16.2546 33.5241C16.2546 34.0914 16.7275 34.5512 17.3108 34.5512C17.8941 34.5512 18.3669 34.0914 18.3669 33.5241C18.3669 32.957 17.8941 32.4971 17.3108 32.4971ZM50.8885 41.4149C50.8882 41.982 50.4153 42.4419 49.8321 42.4419C49.2488 42.4419 48.7759 41.982 48.7759 41.4149C48.7759 40.8477 49.2488 40.3878 49.8321 40.3878C50.4153 40.3878 50.8882 40.8477 50.8882 41.4149H50.8885ZM42.7613 41.4149C42.7611 41.982 42.2882 42.4419 41.7049 42.4419C41.1216 42.4419 40.6488 41.982 40.6488 41.4149C40.6488 40.8477 41.1216 40.3878 41.7049 40.3878C42.2882 40.3878 42.7611 40.8477 42.7611 41.4149H42.7613ZM33.578 40.4004C32.9947 40.4004 32.5219 40.8602 32.5219 41.4274C32.5219 41.9946 32.9947 42.4544 33.578 42.4544C34.1613 42.4544 34.6342 41.9946 34.6342 41.4274C34.6342 40.8602 34.1613 40.4004 33.578 40.4004ZM25.4508 40.4004C24.8676 40.4004 24.3947 40.8602 24.3947 41.4274C24.3947 41.9946 24.8676 42.4544 25.4508 42.4544C26.0341 42.4544 26.507 41.9946 26.507 41.4274C26.507 40.8602 26.0341 40.4004 25.4508 40.4004ZM17.3108 40.4004C16.7275 40.4004 16.2546 40.8602 16.2546 41.4274C16.2546 41.9946 16.7275 42.4544 17.3108 42.4544C17.8941 42.4544 18.3669 41.9946 18.3669 41.4274C18.3669 40.8602 17.8941 40.4004 17.3108 40.4004ZM50.8885 49.3306C50.8882 49.8979 50.4153 50.3577 49.8321 50.3577C49.2488 50.3577 48.7759 49.8979 48.7759 49.3306C48.7759 48.7634 49.2488 48.3036 49.8321 48.3036C50.4153 48.3036 50.8882 48.7634 50.8882 49.3306H50.8885ZM42.7613 49.3306C42.7611 49.8979 42.2882 50.3577 41.7049 50.3577C41.1216 50.3577 40.6488 49.8979 40.6488 49.3306C40.6488 48.7634 41.1216 48.3036 41.7049 48.3036C42.2882 48.3036 42.7611 48.7634 42.7611 49.3306H42.7613ZM34.6342 49.3306C34.6338 49.3345 34.6338 49.339 34.6338 49.3431C34.6338 49.9172 34.1552 50.3827 33.5648 50.3827C32.9745 50.3827 32.4958 49.9172 32.4958 49.3431C32.4958 48.7691 32.9745 48.3036 33.5648 48.3036C33.5691 48.3036 33.5738 48.3036 33.5777 48.3036C34.158 48.3104 34.6268 48.7664 34.6338 49.3306H34.6342ZM26.507 49.3306C26.5067 49.3345 26.5067 49.339 26.5067 49.3431C26.5067 49.9172 26.028 50.3827 25.4377 50.3827C24.8474 50.3827 24.3686 49.9172 24.3686 49.3431C24.3686 48.7691 24.8474 48.3036 25.4377 48.3036C25.4419 48.3036 25.4466 48.3036 25.4506 48.3036C26.0307 48.3104 26.4996 48.7664 26.5067 49.3306H26.507ZM18.3798 49.3306C18.3795 49.3345 18.3795 49.339 18.3795 49.3431C18.3795 49.9172 17.9008 50.3827 17.3105 50.3827C16.7201 50.3827 16.2415 49.9172 16.2415 49.3431C16.2415 48.7691 16.7201 48.3036 17.3105 48.3036C17.8959 48.3036 18.3725 48.7617 18.3795 49.3306H18.3798ZM50.8885 57.2464C50.8882 57.8136 50.4153 58.2734 49.8321 58.2734C49.2488 58.2734 48.7759 57.8136 48.7759 57.2464C48.7759 56.6792 49.2488 56.2193 49.8321 56.2193C50.4153 56.2193 50.8882 56.6792 50.8882 57.2464H50.8885ZM42.7613 57.2464C42.754 57.8085 42.2829 58.2609 41.7049 58.2609C41.1216 58.2609 40.6488 57.8011 40.6488 57.2338C40.6488 56.6667 41.1216 56.2068 41.7049 56.2068C42.2882 56.2068 42.7611 56.6667 42.7611 57.2338C42.7611 57.2381 42.7611 57.2425 42.7611 57.2464H42.7613ZM34.6342 57.2464C34.6338 57.8205 34.1552 58.2859 33.5648 58.2859C32.9745 58.2859 32.4958 57.8205 32.4958 57.2464C32.4958 56.6723 32.9745 56.2068 33.5648 56.2068C33.5691 56.2068 33.5738 56.2068 33.5777 56.2068C34.161 56.2068 34.6338 56.6667 34.6338 57.2338C34.6338 57.2381 34.6338 57.2425 34.6338 57.2464H34.6342ZM26.507 57.2464C26.5067 57.8205 26.028 58.2859 25.4377 58.2859C24.8474 58.2859 24.3686 57.8205 24.3686 57.2464C24.3686 56.6723 24.8474 56.2068 25.4377 56.2068C25.4419 56.2068 25.4466 56.2068 25.4506 56.2068C26.0338 56.2068 26.5067 56.6667 26.5067 57.2338C26.5067 57.2381 26.5067 57.2425 26.5067 57.2464H26.507ZM18.3798 57.2464C18.3795 57.8205 17.9008 58.2859 17.3105 58.2859C16.7201 58.2859 16.2415 57.8205 16.2415 57.2464C16.2415 56.6723 16.7201 56.2068 17.3105 56.2068C17.9008 56.2068 18.3795 56.6723 18.3795 57.2464H18.3798ZM50.8885 65.1496C50.8882 65.7168 50.4153 66.1767 49.8321 66.1767C49.2488 66.1767 48.7759 65.7168 48.7759 65.1496C48.7759 64.5824 49.2488 64.1225 49.8321 64.1225C50.4153 64.1225 50.8882 64.5824 50.8882 65.1496H50.8885ZM42.7613 65.1496C42.7611 65.7168 42.2882 66.1767 41.7049 66.1767C41.1216 66.1767 40.6488 65.7168 40.6488 65.1496C40.6488 64.5824 41.1216 64.1225 41.7049 64.1225C42.2882 64.1225 42.7611 64.5824 42.7611 65.1496H42.7613ZM33.578 64.1225C32.9947 64.1225 32.5219 64.5824 32.5219 65.1496C32.5219 65.7168 32.9947 66.1767 33.578 66.1767C34.1613 66.1767 34.6342 65.7168 34.6342 65.1496C34.6342 64.5824 34.1613 64.1225 33.578 64.1225ZM25.4508 64.1225C24.8676 64.1225 24.3947 64.5824 24.3947 65.1496C24.3947 65.7168 24.8676 66.1767 25.4508 66.1767C26.0341 66.1767 26.507 65.7168 26.507 65.1496C26.507 64.5824 26.0341 64.1225 25.4508 64.1225ZM17.3108 64.1225C16.7275 64.1225 16.2546 64.5824 16.2546 65.1496C16.2546 65.7168 16.7275 66.1767 17.3108 66.1767C17.8941 66.1767 18.3669 65.7168 18.3669 65.1496C18.3669 64.5824 17.8941 64.1225 17.3108 64.1225ZM50.8885 73.0529C50.8882 73.62 50.4153 74.0799 49.8321 74.0799C49.2488 74.0799 48.7759 73.62 48.7759 73.0529C48.7759 72.4857 49.2488 72.0258 49.8321 72.0258C50.4153 72.0258 50.8882 72.4857 50.8882 73.0529H50.8885ZM42.7613 73.0529C42.7611 73.62 42.2882 74.0799 41.7049 74.0799C41.1216 74.0799 40.6488 73.62 40.6488 73.0529C40.6488 72.4857 41.1216 72.0258 41.7049 72.0258C42.2882 72.0258 42.7611 72.4857 42.7611 73.0529H42.7613ZM33.578 72.0258C32.9947 72.0258 32.5219 72.4857 32.5219 73.0529C32.5219 73.62 32.9947 74.0799 33.578 74.0799C34.1613 74.0799 34.6342 73.62 34.6342 73.0529C34.6342 72.4857 34.1613 72.0258 33.578 72.0258ZM25.4508 72.0258C24.8676 72.0258 24.3947 72.4857 24.3947 73.0529C24.3947 73.62 24.8676 74.0799 25.4508 74.0799C26.0341 74.0799 26.507 73.62 26.507 73.0529C26.507 72.4857 26.0341 72.0258 25.4508 72.0258ZM17.3108 72.0258C16.7275 72.0258 16.2546 72.4857 16.2546 73.0529C16.2546 73.62 16.7275 74.0799 17.3108 74.0799C17.8941 74.0799 18.3669 73.62 18.3669 73.0529C18.3669 72.4857 17.8941 72.0258 17.3108 72.0258ZM50.8885 80.9561C50.8882 81.5233 50.4153 81.9831 49.8321 81.9831C49.2488 81.9831 48.7759 81.5233 48.7759 80.9561C48.7759 80.3889 49.2488 79.929 49.8321 79.929C50.4153 79.929 50.8882 80.3889 50.8882 80.9561H50.8885ZM42.7613 80.9561C42.7611 81.5233 42.2882 81.9831 41.7049 81.9831C41.1216 81.9831 40.6488 81.5233 40.6488 80.9561C40.6488 80.3889 41.1216 79.929 41.7049 79.929C42.2882 79.929 42.7611 80.3889 42.7611 80.9561H42.7613ZM33.578 79.929C32.9947 79.929 32.5219 80.3889 32.5219 80.9561C32.5219 81.5233 32.9947 81.9831 33.578 81.9831C34.1613 81.9831 34.6342 81.5233 34.6342 80.9561C34.6342 80.3889 34.1613 79.929 33.578 79.929ZM25.4508 79.929C24.8676 79.929 24.3947 80.3889 24.3947 80.9561C24.3947 81.5233 24.8676 81.9831 25.4508 81.9831C26.0341 81.9831 26.507 81.5233 26.507 80.9561C26.507 80.3889 26.0341 79.929 25.4508 79.929ZM17.3108 79.929C16.7275 79.929 16.2546 80.3889 16.2546 80.9561C16.2546 81.5233 16.7275 81.9831 17.3108 81.9831C17.8941 81.9831 18.3669 81.5233 18.3669 80.9561C18.3669 80.3889 17.8941 79.929 17.3108 79.929ZM50.8885 88.8718C50.8882 89.4391 50.4153 89.8989 49.8321 89.8989C49.2488 89.8989 48.7759 89.4391 48.7759 88.8718C48.7759 88.3046 49.2488 87.8448 49.8321 87.8448C50.4153 87.8448 50.8882 88.3046 50.8882 88.8718H50.8885ZM42.7613 88.8718C42.754 89.434 42.2829 89.8864 41.7049 89.8864C41.1216 89.8864 40.6488 89.4265 40.6488 88.8593C40.6488 88.2921 41.1216 87.8323 41.7049 87.8323C42.2882 87.8323 42.7611 88.2921 42.7611 88.8593C42.7611 88.8635 42.7611 88.868 42.7611 88.8718H42.7613ZM34.6342 88.8718C34.6338 89.4459 34.1552 89.9114 33.5648 89.9114C32.9745 89.9114 32.4958 89.4459 32.4958 88.8718C32.4958 88.2978 32.9745 87.8323 33.5648 87.8323C33.5691 87.8323 33.5738 87.8323 33.5777 87.8323C34.161 87.8323 34.6338 88.2921 34.6338 88.8593C34.6338 88.8635 34.6338 88.868 34.6338 88.8718H34.6342ZM26.507 88.8718C26.5067 89.4459 26.028 89.9114 25.4377 89.9114C24.8474 89.9114 24.3686 89.4459 24.3686 88.8718C24.3686 88.2978 24.8474 87.8323 25.4377 87.8323C25.4419 87.8323 25.4466 87.8323 25.4506 87.8323C26.0338 87.8323 26.5067 88.2921 26.5067 88.8593C26.5067 88.8635 26.5067 88.868 26.5067 88.8718H26.507ZM18.3798 88.8718C18.3795 89.4459 17.9008 89.9114 17.3105 89.9114C16.7201 89.9114 16.2415 89.4459 16.2415 88.8718C16.2415 88.2978 16.7201 87.8323 17.3105 87.8323C17.9008 87.8323 18.3795 88.2978 18.3795 88.8718H18.3798ZM50.8885 96.7751C50.8882 97.3423 50.4153 97.8021 49.8321 97.8021C49.2488 97.8021 48.7759 97.3423 48.7759 96.7751C48.7759 96.2079 49.2488 95.7481 49.8321 95.7481C50.4153 95.7481 50.8882 96.2079 50.8882 96.7751H50.8885ZM42.7613 96.7751C42.754 97.3372 42.2829 97.7896 41.7049 97.7896C41.1216 97.7896 40.6488 97.3297 40.6488 96.7626C40.6488 96.1954 41.1216 95.7355 41.7049 95.7355C42.2882 95.7355 42.7611 96.1954 42.7611 96.7626C42.7611 96.7667 42.7611 96.7712 42.7611 96.7751H42.7613ZM34.6342 96.7751C34.6338 97.3491 34.1552 97.8147 33.5648 97.8147C32.9745 97.8147 32.4958 97.3491 32.4958 96.7751C32.4958 96.201 32.9745 95.7355 33.5648 95.7355C33.5691 95.7355 33.5738 95.7355 33.5777 95.7355C34.161 95.7355 34.6338 96.1954 34.6338 96.7626C34.6338 96.7667 34.6338 96.7712 34.6338 96.7751H34.6342ZM26.507 96.7751C26.5067 97.3491 26.028 97.8147 25.4377 97.8147C24.8474 97.8147 24.3686 97.3491 24.3686 96.7751C24.3686 96.201 24.8474 95.7355 25.4377 95.7355C25.4419 95.7355 25.4466 95.7355 25.4506 95.7355C26.0338 95.7355 26.5067 96.1954 26.5067 96.7626C26.5067 96.7667 26.5067 96.7712 26.5067 96.7751H26.507ZM18.3798 96.7751C18.3795 97.3491 17.9008 97.8147 17.3105 97.8147C16.7201 97.8147 16.2415 97.3491 16.2415 96.7751C16.2415 96.201 16.7201 95.7355 17.3105 95.7355C17.9008 95.7355 18.3795 96.201 18.3795 96.7751H18.3798ZM50.8885 104.678C50.8882 105.246 50.4153 105.705 49.8321 105.705C49.2488 105.705 48.7759 105.246 48.7759 104.678C48.7759 104.111 49.2488 103.651 49.8321 103.651C50.4153 103.651 50.8882 104.111 50.8882 104.678H50.8885ZM42.7613 104.678C42.7611 105.246 42.2882 105.705 41.7049 105.705C41.1216 105.705 40.6488 105.246 40.6488 104.678C40.6488 104.111 41.1216 103.651 41.7049 103.651C42.2882 103.651 42.7611 104.111 42.7611 104.678H42.7613ZM33.578 103.651C32.9947 103.651 32.5219 104.111 32.5219 104.678C32.5219 105.246 32.9947 105.705 33.578 105.705C34.1613 105.705 34.6342 105.246 34.6342 104.678C34.6342 104.111 34.1613 103.651 33.578 103.651ZM25.4508 103.651C24.8676 103.651 24.3947 104.111 24.3947 104.678C24.3947 105.246 24.8676 105.705 25.4508 105.705C26.0341 105.705 26.507 105.246 26.507 104.678C26.507 104.111 26.0341 103.651 25.4508 103.651ZM17.3108 103.651C16.7275 103.651 16.2546 104.111 16.2546 104.678C16.2546 105.246 16.7275 105.705 17.3108 105.705C17.8941 105.705 18.3669 105.246 18.3669 104.678C18.3669 104.111 17.8941 103.651 17.3108 103.651ZM50.8885 112.582C50.8882 113.148 50.4153 113.608 49.8321 113.608C49.2488 113.608 48.7759 113.148 48.7759 112.581C48.7759 112.014 49.2488 111.554 49.8321 111.554C50.4153 111.554 50.8882 112.014 50.8882 112.581L50.8885 112.582ZM42.7613 112.582C42.7611 113.148 42.2882 113.608 41.7049 113.608C41.1216 113.608 40.6488 113.148 40.6488 112.581C40.6488 112.014 41.1216 111.554 41.7049 111.554C42.2882 111.554 42.7611 112.014 42.7611 112.581L42.7613 112.582ZM33.578 111.554C32.9947 111.554 32.5219 112.014 32.5219 112.582C32.5219 113.149 32.9947 113.609 33.578 113.609C34.1613 113.609 34.6342 113.149 34.6342 112.582C34.6342 112.014 34.1613 111.554 33.578 111.554ZM25.4508 111.554C24.8676 111.554 24.3947 112.014 24.3947 112.582C24.3947 113.149 24.8676 113.609 25.4508 113.609C26.0341 113.609 26.507 113.149 26.507 112.582C26.507 112.014 26.0341 111.554 25.4508 111.554ZM17.3108 111.554C16.7275 111.554 16.2546 112.014 16.2546 112.582C16.2546 113.149 16.7275 113.609 17.3108 113.609C17.8941 113.609 18.3669 113.149 18.3669 112.582C18.3669 112.014 17.8941 111.554 17.3108 111.554ZM50.8885 120.485C50.8882 121.052 50.4153 121.512 49.8321 121.512C49.2488 121.512 48.7759 121.052 48.7759 120.484C48.7759 119.917 49.2488 119.457 49.8321 119.457C50.4153 119.457 50.8882 119.917 50.8882 120.484L50.8885 120.485ZM42.7613 120.485C42.7611 121.052 42.2882 121.512 41.7049 121.512C41.1216 121.512 40.6488 121.052 40.6488 120.484C40.6488 119.917 41.1216 119.457 41.7049 119.457C42.2882 119.457 42.7611 119.917 42.7611 120.484L42.7613 120.485ZM33.578 119.458C32.9947 119.458 32.5219 119.918 32.5219 120.485C32.5219 121.052 32.9947 121.512 33.578 121.512C34.1613 121.512 34.6342 121.052 34.6342 120.485C34.6342 119.918 34.1613 119.458 33.578 119.458ZM25.4508 119.458C24.8676 119.458 24.3947 119.918 24.3947 120.485C24.3947 121.052 24.8676 121.512 25.4508 121.512C26.0341 121.512 26.507 121.052 26.507 120.485C26.507 119.918 26.0341 119.458 25.4508 119.458Z" fill="#2B2A29"/>
</svg>
