<svg width="30" height="30" viewBox="0 0 30 30" fill="none" xmlns="http://www.w3.org/2000/svg">
<path fill-rule="evenodd" clip-rule="evenodd" d="M15.0698 2.71444C8.32266 2.71444 2.8541 8.183 2.8541 14.9301C2.8541 17.2728 3.51239 19.4581 4.65388 21.3162L5.02171 21.9148L2.7238 27.2762L8.08513 24.9782L8.68506 25.3461C10.5418 26.4876 12.7271 27.1459 15.0698 27.1459C21.8169 27.1459 27.2855 21.6773 27.2855 14.9301C27.2855 8.183 21.8169 2.71444 15.0698 2.71444ZM0.139379 14.9303C0.139379 6.68471 6.82409 0 15.0697 0C23.3153 0 30 6.68471 30 14.9303C30 23.1759 23.3153 29.8606 15.0697 29.8606C12.4664 29.8606 10.0151 29.1928 7.88142 28.0201L3.79323 29.7724C1.54011 30.7374 -0.737437 28.4599 0.227604 26.2068L1.97988 22.1186C0.807172 19.9849 0.139379 17.5336 0.139379 14.9303ZM8.28288 12.2158C8.28288 11.4665 8.89095 10.8585 9.64018 10.8585H13.7121C14.4613 10.8585 15.0694 11.4665 15.0694 12.2158C15.0694 12.965 14.4613 13.5731 13.7121 13.5731H9.64018C8.89095 13.5731 8.28288 12.965 8.28288 12.2158ZM8.28288 17.6447C8.28288 16.8955 8.89095 16.2874 9.64018 16.2874H20.4986C21.2478 16.2874 21.8559 16.8955 21.8559 17.6447C21.8559 18.394 21.2478 19.002 20.4986 19.002H9.64018C8.89095 19.002 8.28288 18.394 8.28288 17.6447Z" fill="white"/>
</svg>
