<svg width="534" height="238" viewBox="0 0 534 238" fill="none" xmlns="http://www.w3.org/2000/svg" xmlns:xlink="http://www.w3.org/1999/xlink">
<g clip-path="url(#clip0)">
<path d="M474.703 153.52C474.452 153.957 474.198 154.391 473.943 154.822" stroke="#D9D9D9" stroke-miterlimit="10"/>
<path d="M70.4479 90.0852C91.0662 112.214 116.049 126.641 147.572 126.724C186.957 126.828 253.28 102.351 246.767 53.1186C243.874 31.2464 227.487 10.8163 206.443 3.853C172.979 -7.2204 137.702 13.8103 134.501 48.931C133.127 63.9935 133.519 80.6769 135.678 95.4027C137.799 109.872 142.76 124.498 151.434 136.206C170.628 162.117 182.75 175.561 250.588 188.869C266.831 192.056 286.034 187.232 300.371 177.849C317.962 166.335 318.523 143.426 305.365 128.26C297.082 118.714 283.787 113.679 271.067 115.272C260.15 116.639 245.065 124.404 241.429 135.597C237.537 147.578 239.955 163.128 243.678 174.73C250.853 197.086 292.684 225.868 335.774 225.527C353.428 225.387 432.067 218.301 471.407 157.569C495.862 117.692 516.722 67.5243 532.617 9.95716" stroke="url(#paint0_linear)" stroke-miterlimit="10" stroke-linecap="round" stroke-dasharray="3 3"/>
<path d="M69.203 86.5304C68.8701 86.1616 68.5384 85.7909 68.2077 85.4181" stroke="#D9D9D9" stroke-miterlimit="10"/>
<path d="M70.2896 65.3782L44.779 46.1574L42.6424 54.0593L60.8271 71.4822L65.4452 82.971L70.2896 65.3782Z" fill="url(#paint1_linear)"/>
<g opacity="0.6">
<rect width="113.077" height="117.805" transform="matrix(-0.991494 0.130208 0.120122 0.992766 72.1147 -32.8267)" fill="url(#pattern0)"/>
</g>
<path d="M60.9201 71.4302L38.2043 49.6594L29.2761 94.3934L60.9201 71.4302Z" fill="url(#paint2_linear)"/>
<path d="M65.4881 83.0201L60.872 71.534L55.8408 75.184L65.4881 83.0201Z" fill="url(#paint3_linear)"/>
<g opacity="0.6">
<rect width="106.285" height="156.21" transform="matrix(-0.991508 0.130095 0.120227 0.992752 65.4126 -31.718)" fill="url(#pattern1)"/>
</g>
<path d="M96.1415 52.5455L70.163 65.3575L44.7596 46.2476L96.1415 52.5455Z" fill="url(#paint4_linear)"/>
<g opacity="0.6">
<rect width="163.32" height="123.064" transform="matrix(-0.991502 0.130139 0.120187 0.992757 121.962 -38.8618)" fill="url(#pattern2)"/>
</g>
<path d="M0.0781333 12.7755L29.3241 94.3017L38.2895 49.4896L0.0781333 12.7755Z" fill="url(#paint5_linear)"/>
<path d="M42.6584 53.7918L44.7922 45.8968L0.0779503 12.7986L42.6584 53.7918Z" fill="url(#paint6_linear)"/>
<path d="M0.0782162 12.9891L44.6878 45.9779L96.0979 52.2858L0.0782162 12.9891Z" fill="url(#paint7_linear)"/>
<g opacity="0.7">
<path opacity="0.7" d="M0.0781268 12.9903C0.0781268 12.9903 1.18519 13.7896 3.12207 15.1886C4.08906 15.8899 5.26297 16.7424 6.60918 17.7201C7.95598 18.6972 9.4757 19.7998 11.1262 21.0122C12.7779 22.2225 14.5679 23.5331 16.461 24.9195C18.3518 26.308 20.3464 27.773 22.4095 29.2878C24.4693 30.8078 26.5971 32.3784 28.7593 33.9746C30.9188 35.5741 33.1128 37.1989 35.3062 38.8246C37.4969 40.4542 39.6869 42.0841 41.8429 43.6883C43.996 45.2967 46.1152 46.8792 48.1658 48.4105C50.2174 49.9406 52.1925 51.4299 54.0667 52.8409C55.9409 54.252 57.7133 55.5865 59.3489 56.8172C60.9868 58.0465 62.4819 59.182 63.8056 60.1879C65.1308 61.1945 66.2857 62.0713 67.2366 62.793C69.1351 64.2431 70.2198 65.0718 70.2198 65.0718C70.2198 65.0718 69.1127 64.2725 67.1753 62.8737C66.2083 62.1721 65.035 61.3194 63.6882 60.3418C62.3415 59.3653 60.8217 58.2624 59.1711 57.0498C57.5195 55.8403 55.7295 54.5294 53.837 53.1427C51.9438 51.7561 49.9458 50.2962 47.8871 48.7748C45.828 47.2547 43.7004 45.6838 41.5386 44.0876C39.3792 42.4881 37.1851 40.8624 34.9916 39.237C32.8011 37.6073 30.6111 35.9777 28.455 34.3732C26.3019 32.7648 24.1833 31.1824 22.1328 29.6507C20.0863 28.1142 18.1083 26.6287 16.2317 25.22C14.3569 23.8093 12.5854 22.475 10.949 21.2438C9.31122 20.0154 7.81732 18.8798 6.49226 17.873C5.16783 16.8674 4.01225 15.9905 3.06128 15.2683C1.16281 13.8191 0.0781268 12.9903 0.0781268 12.9903Z" fill="#D9D9D9"/>
</g>
<g opacity="0.7">
<path opacity="0.7" d="M0.0781661 12.9383C0.0781661 12.9383 1.04005 13.8355 2.72374 15.4055C3.5638 16.1928 4.58378 17.1488 5.75305 18.2459C6.92302 19.3419 8.24343 20.5782 9.67475 21.9366C11.1076 23.2921 12.6608 24.7616 14.3035 26.3146C15.9457 27.8689 17.6798 29.5046 19.4637 31.2073C21.2494 32.909 23.0936 34.6673 24.9685 36.4543C26.8397 38.2439 28.7408 40.0624 30.6414 41.8808C32.5378 43.7032 34.4356 45.5261 36.3026 47.3199C38.1664 49.1178 40.0002 50.8865 41.7753 52.5983C43.5523 54.3095 45.2596 55.9723 46.8802 57.5483C48.502 59.1231 50.0346 60.6126 51.449 61.9877C52.8657 63.3602 54.157 64.6267 55.3007 65.7503C56.4457 66.8725 57.4434 67.8507 58.2648 68.6563C59.9043 70.2719 60.8406 71.1957 60.8406 71.1957C60.8406 71.1957 59.878 70.2986 58.1943 68.7285C57.3541 67.9407 56.3348 66.9847 55.165 65.8884C53.9951 64.7921 52.6753 63.5556 51.2433 62.1976C49.8104 60.842 48.2567 59.3734 46.6146 57.8194C44.9719 56.2661 43.2377 54.6295 41.4538 52.9268C39.6686 51.2248 37.8243 49.4664 35.9496 47.6797C34.0783 45.8897 32.1778 44.0713 30.2767 42.2529C28.3802 40.4306 26.4831 38.6077 24.616 36.8134C22.7523 35.0159 20.9185 33.2466 19.1433 31.5348C17.3669 29.8245 15.6595 28.1602 14.0384 26.5851C12.4167 25.01 10.8846 23.5204 9.47024 22.1453C8.05306 20.7729 6.76164 19.5062 5.61802 18.3838C4.47309 17.2615 3.47529 16.2834 2.6532 15.4778C1.01443 13.8618 0.0781661 12.9383 0.0781661 12.9383Z" fill="#D9D9D9"/>
</g>
<path d="M0.0778341 12.8436L0.462871 13.0027L0.284845 12.8304L0.582846 13.052L96.1811 52.5199L70.2145 65.3513L65.4241 82.9358L55.7918 75.0759L29.2904 94.3453L0.0778341 12.8436Z" stroke="white" stroke-miterlimit="10"/>
</g>
<defs>
<pattern id="pattern0" patternContentUnits="objectBoundingBox" width="1" height="1">
<use xlink:href="#image0"/>
</pattern>
<pattern id="pattern1" patternContentUnits="objectBoundingBox" width="1" height="1">
<use xlink:href="#image1"/>
</pattern>
<pattern id="pattern2" patternContentUnits="objectBoundingBox" width="1" height="1">
<use xlink:href="#image2"/>
</pattern>
<linearGradient id="paint0_linear" x1="61.6487" y1="73.4114" x2="618.529" y2="95.6259" gradientUnits="userSpaceOnUse">
<stop stop-color="#D3D3D3"/>
<stop offset="1" stop-color="#CECECE" stop-opacity="0.2"/>
</linearGradient>
<linearGradient id="paint1_linear" x1="52.9433" y1="65.7192" x2="67.1135" y2="58.1494" gradientUnits="userSpaceOnUse">
<stop stop-color="#DADADA"/>
<stop offset="1" stop-color="white"/>
</linearGradient>
<linearGradient id="paint2_linear" x1="28.0263" y1="72.402" x2="60.8693" y2="70.5356" gradientUnits="userSpaceOnUse">
<stop stop-color="#EDEDED"/>
<stop offset="1" stop-color="white"/>
</linearGradient>
<linearGradient id="paint3_linear" x1="60.3831" y1="74.1516" x2="60.9245" y2="82.3893" gradientUnits="userSpaceOnUse">
<stop stop-color="#DADADA"/>
<stop offset="1" stop-color="white"/>
</linearGradient>
<linearGradient id="paint4_linear" x1="70.597" y1="47.461" x2="69.3841" y2="66.2879" gradientUnits="userSpaceOnUse">
<stop stop-color="#EDEDED"/>
<stop offset="1" stop-color="white"/>
</linearGradient>
<linearGradient id="paint5_linear" x1="11.2246" y1="55.3801" x2="31.723" y2="44.4444" gradientUnits="userSpaceOnUse">
<stop stop-color="#EDEDED"/>
<stop offset="1" stop-color="white"/>
</linearGradient>
<linearGradient id="paint6_linear" x1="37.3517" y1="43.4687" x2="58.3923" y2="57.1925" gradientUnits="userSpaceOnUse">
<stop stop-color="#DADADA"/>
<stop offset="1" stop-color="white"/>
</linearGradient>
<linearGradient id="paint7_linear" x1="31.1462" y1="31.8589" x2="80.9459" y2="34.6837" gradientUnits="userSpaceOnUse">
<stop stop-color="#EDEDED"/>
<stop offset="1" stop-color="white"/>
</linearGradient>
<clipPath id="clip0">
<rect width="534" height="238" fill="white"/>
</clipPath>
<image id="image0" xlink:href="data:image/png;base64,iVBORw0KGgoAAAANSUhEUgAAAdcAAAHwCAYAAAD0LSVPAAAACXBIWXMAAC4jAAAuIwF4pT92AAAA"/>
<image id="image1" xlink:href="data:image/png;base64,iVBORw0KGgoAAAANSUhEUgAAAb4AAAKSCAYAAACtC745AAAACXBIWXMAAC4jAAAuIwF4pT92AAAA"/>
<image id="image2" xlink:href="data:image/png;base64,iVBORw0KGgoAAAANSUhEUgAAAqsAAAIJCAYAAACCz3QUAAAACXBIWXMAAC4jAAAuIwF4pT92AAAA"/>
</defs>
</svg>
