<svg width="26" height="24" viewBox="0 0 26 24" fill="none" xmlns="http://www.w3.org/2000/svg">
<path d="M22.7938 13.6245C23.4356 14.2554 24.4762 14.2554 25.1181 13.6245C25.7599 12.9937 25.7599 11.9709 25.1181 11.34L14.1615 0.570792C13.5197 -0.0600554 12.4791 -0.0600553 11.8373 0.570792L0.880778 11.34C0.238959 11.9709 0.238959 12.9937 0.880778 13.6245C1.5226 14.2554 2.56319 14.2554 3.20501 13.6245L12.9994 3.99754L22.7938 13.6245Z" fill="white"/>
<path d="M22.7938 23.4253C23.4356 24.0561 24.4762 24.0561 25.1181 23.4253C25.7599 22.7945 25.7599 21.7716 25.1181 21.1408L14.1615 10.3716C13.5197 9.74073 12.4791 9.74073 11.8373 10.3716L0.880778 21.1408C0.238959 21.7717 0.238959 22.7945 0.880778 23.4253C1.5226 24.0561 2.56319 24.0561 3.20501 23.4253L12.9994 13.7983L22.7938 23.4253Z" fill="white"/>
</svg>
