<svg width="10" height="16" viewBox="0 0 10 16" fill="none" xmlns="http://www.w3.org/2000/svg">
<path d="M9.04036 2.0404C9.43088 1.64988 9.43088 1.01671 9.04036 0.626187C8.64983 0.235663 8.01667 0.235663 7.62615 0.626187L0.959478 7.29285C0.568954 7.68338 0.568954 8.31654 0.959478 8.70707L7.62615 15.3737C8.01667 15.7643 8.64983 15.7643 9.04036 15.3737C9.43088 14.9832 9.43088 14.35 9.04036 13.9595L3.0808 7.99996L9.04036 2.0404Z" fill="white"/>
</svg>
