<svg width="51" height="50" viewBox="0 0 51 50" fill="none" xmlns="http://www.w3.org/2000/svg">
<path d="M5.00371 0.000415739C2.24162 0.000236934 0.00252379 2.22395 0.00302899 4.98604C0.0046623 13.9158 0.00724271 32.8391 0.00261903 45.004C0.00156893 47.7668 2.22505 49.9999 4.98785 49.9999C13.9196 50 32.8451 50.0001 45.0094 49.9999C47.7708 49.9998 50.0016 47.777 50.0016 45.0156C50.0016 36.0858 50.0016 17.1581 50.0016 4.99261C50.0016 2.23124 47.7631 0.000338966 45.0017 0.000332397C31.669 0.000300676 18.3364 0.00127884 5.00371 0.000415739Z" fill="#29AAEC"/>
<path d="M5.00371 0.000415739C2.24162 0.000236934 0.00252379 2.22395 0.00302899 4.98604C0.0046623 13.9158 0.00724271 32.8391 0.00261903 45.004C0.00156893 47.7668 2.22505 49.9999 4.98785 49.9999C13.9196 50 32.8451 50.0001 45.0094 49.9999C47.7708 49.9998 50.0016 47.777 50.0016 45.0156C50.0016 36.0858 50.0016 17.1581 50.0016 4.99261C50.0016 2.23124 47.7631 0.000338966 45.0017 0.000332397C31.669 0.000300676 18.3364 0.00127884 5.00371 0.000415739Z" fill="url(#paint0_linear)"/>
<path fill-rule="evenodd" clip-rule="evenodd" d="M11.3156 24.7361C18.6036 21.5608 23.4635 19.4675 25.8951 18.4561C32.8378 15.5684 34.2805 15.0667 35.2208 15.0502C35.4276 15.0465 35.89 15.0978 36.1895 15.3408C36.4425 15.5461 36.512 15.8233 36.5453 16.0179C36.5786 16.2124 36.6201 16.6557 36.5871 17.002C36.2109 20.9551 34.583 30.5482 33.7548 34.9757C33.4043 36.8492 32.7143 37.4773 32.0462 37.5388C30.5945 37.6724 29.492 36.5794 28.0859 35.6576C25.8856 34.2153 24.6425 33.3174 22.5067 31.91C20.0384 30.2834 21.6385 29.3894 23.0452 27.9284C23.4133 27.546 29.81 21.7278 29.9338 21.2C29.9493 21.134 29.9636 20.8879 29.8175 20.758C29.6713 20.6281 29.4555 20.6725 29.2998 20.7078C29.0792 20.7579 25.5641 23.0812 18.7547 27.6778C17.757 28.3629 16.8532 28.6967 16.0435 28.6792C15.1509 28.6599 13.4339 28.1745 12.1574 27.7596C10.5918 27.2507 9.34744 26.9816 9.4558 26.1173C9.51223 25.6671 10.1322 25.2067 11.3156 24.7361Z" fill="white"/>
<defs>
<linearGradient id="paint0_linear" x1="25.0008" y1="0" x2="25.0008" y2="49.6292" gradientUnits="userSpaceOnUse">
<stop stop-color="#2AABEE"/>
<stop offset="1" stop-color="#229ED9"/>
</linearGradient>
</defs>
</svg>
