<svg width="50" height="50" viewBox="0 0 50 50" fill="none" xmlns="http://www.w3.org/2000/svg">
<rect x="19" y="13" width="2" height="24" rx="1" fill="white"/>
<rect x="29" y="13" width="2" height="24" rx="1" fill="white"/>
</svg>
