<svg width="22" height="22" viewBox="0 0 22 22" fill="none" xmlns="http://www.w3.org/2000/svg">
<path className="shop__sort-icon-inner-selector" fill-rule="evenodd" clip-rule="evenodd" d="M3.01878 7.26812C3.37719 6.91063 3.95652 6.91063 4.31493 7.26812L7.06491 10.0181C7.42332 10.3756 7.42332 10.9623 7.06491 11.3197C6.70649 11.6772 6.12717 11.6772 5.76875 11.3197L4.58351 10.1281V17.0855C4.58351 17.5897 4.17285 18.0022 3.66686 18.0022C3.16086 18.0022 2.7502 17.5897 2.7502 17.0855V10.1281L1.56496 11.3197C1.20655 11.6772 0.627223 11.6772 0.26881 11.3197C-0.0896032 10.9623 -0.0896032 10.3756 0.26881 10.0181L3.01878 7.26812ZM21.0832 8.83592H10.0833C9.57733 8.83592 9.16667 8.42342 9.16667 7.91926C9.16667 7.4151 9.57733 7.0026 10.0833 7.0026H21.0832C21.5892 7.0026 21.9999 7.4151 21.9999 7.91926C21.9999 8.42342 21.5892 8.83592 21.0832 8.83592ZM9.16667 12.5026C9.16667 11.9984 9.57733 11.5859 10.0833 11.5859H17.4166C17.9226 11.5859 18.3332 11.9984 18.3332 12.5026C18.3332 13.0068 17.9226 13.4193 17.4166 13.4193H10.0833C9.57733 13.4193 9.16667 13.0068 9.16667 12.5026ZM9.16667 17.0859C9.16667 16.5818 9.57733 16.1693 10.0833 16.1693H17.4166C17.9226 16.1693 18.3332 16.5818 18.3332 17.0859C18.3332 17.5901 17.9226 18.0026 17.4166 18.0026H10.0833C9.57733 18.0026 9.16667 17.5901 9.16667 17.0859Z" fill="#424242"/>
</svg>
