<svg width="36" height="27" viewBox="0 0 36 27" fill="none" xmlns="http://www.w3.org/2000/svg">
<path d="M31.7812 0H4.21875C1.89253 0 0 1.89253 0 4.21875V22.2188C0 24.545 1.89253 26.4375 4.21875 26.4375H31.7812C34.1075 26.4375 36 24.545 36 22.2188V4.21875C36 1.89253 34.1075 0 31.7812 0ZM33.1875 22.2188C33.1875 22.9942 32.5567 23.625 31.7812 23.625H4.21875C3.44334 23.625 2.8125 22.9942 2.8125 22.2188V19.6172H33.1875V22.2188ZM33.1875 15.3984H2.8125V4.21875C2.8125 3.44334 3.44334 2.8125 4.21875 2.8125H31.7812C32.5567 2.8125 33.1875 3.44334 33.1875 4.21875V15.3984Z" fill="#424242"/>
<path d="M23.3438 7.24219H4.78125V10.0547H23.3438V7.24219Z" fill="#424242"/>
</svg>
