<svg width="36" height="36" viewBox="0 0 36 36" fill="none" xmlns="http://www.w3.org/2000/svg">
<g clip-path="url(#clip0)">
<path d="M2.66122 26.6309V23.0749C2.66122 19.1138 2.66122 15.1527 2.66122 11.1916C2.66122 10.155 2.97784 9.81775 4.00373 9.81775C13.3412 9.81775 22.6776 9.81775 32.013 9.81775C32.9328 9.81775 33.3587 10.155 33.3603 10.9663C33.3729 16.1184 33.3603 21.2705 33.3603 26.4226C33.3489 26.4935 33.3309 26.5632 33.3064 26.6309H2.66122ZM15.8014 23.3376C18.4928 23.3376 21.1842 23.3376 23.8756 23.3376C25.0629 23.3376 25.3843 23.0267 25.3906 21.8704C25.4017 19.4614 25.3986 17.0525 25.3906 14.6435C25.3906 13.4949 25.0503 13.1608 23.8835 13.1592C18.449 13.1592 13.0135 13.1592 7.57692 13.1592C6.40855 13.1592 6.06342 13.4934 6.06026 14.6342C6.06026 17.0431 6.06026 19.4521 6.06026 21.8611C6.06026 23.0158 6.3943 23.3391 7.56584 23.3407L15.8014 23.3376ZM26.5463 18.229C26.5463 19.3604 26.5463 19.3604 27.6213 19.362C28.7865 19.362 28.7865 19.362 28.7881 18.2321C28.7881 17.1442 28.7881 17.1442 27.6625 17.1442C26.5368 17.1442 26.5432 17.141 26.5416 18.229H26.5463ZM32.3185 17.141C31.7359 17.141 31.242 17.1255 30.7512 17.1488C30.5549 17.1581 30.205 17.2312 30.1955 17.3042C30.099 17.8806 30.0804 18.4669 30.1401 19.048C30.1623 19.1941 30.7401 19.3371 31.0679 19.348C32.3201 19.3884 32.3201 19.3682 32.3185 18.1684V17.141ZM31.109 15.2341C32.317 15.2341 32.317 15.2341 32.317 14.3218C32.317 13.0256 32.317 13.0256 31.2594 13.0256C30.0657 13.0256 30.0657 13.0256 30.0641 14.0622C30.0578 15.2325 30.0578 15.2325 31.1043 15.2325L31.109 15.2341ZM32.317 22.3646C32.317 21.2767 32.317 21.2767 31.2198 21.2767C30.0657 21.2767 30.0657 21.2767 30.0673 22.4113C30.0673 23.4666 30.0673 23.4666 31.2246 23.4666C32.3122 23.4588 32.3122 23.4588 32.3122 22.3631L32.317 22.3646ZM27.6609 15.2341C28.7865 15.2341 28.7865 15.2341 28.7881 14.2301C28.7881 13.0271 28.7881 13.0271 27.7052 13.0256C26.5495 13.0256 26.5495 13.0256 26.5479 14.0731C26.5432 15.2325 26.5432 15.2325 27.6561 15.2325L27.6609 15.2341ZM26.5527 22.3491C26.5527 23.4603 26.5527 23.4603 27.5485 23.4603C28.7897 23.4603 28.7897 23.4603 28.7913 22.4237C28.7913 21.2736 28.7913 21.2736 27.7448 21.2721C26.5448 21.2689 26.5448 21.2689 26.5448 22.3475L26.5527 22.3491Z" fill="#424242"/>
<path d="M0.00309766 31.0463H35.9931C35.9931 32.5103 36.0216 33.9277 35.963 35.342C35.9551 35.5581 35.5783 35.8083 35.3171 35.9497C35.1318 36.0476 34.8532 35.9746 34.6157 35.9746C23.5125 35.9746 12.4093 35.9746 1.30604 35.9746C0.0284252 35.9746 0.0157548 35.9746 0.0046727 34.7313C-0.00482626 33.5252 0.00309766 32.3098 0.00309766 31.0463ZM18.0274 32.3316C17.7231 32.3302 17.4297 32.4427 17.207 32.6463C16.9843 32.8499 16.8491 33.1292 16.8289 33.4273C16.8198 33.727 16.9308 34.0182 17.138 34.2385C17.3452 34.4587 17.6321 34.5904 17.9371 34.6054C18.0945 34.6148 18.2521 34.5929 18.4006 34.541C18.5491 34.4891 18.6854 34.4082 18.8012 34.3032C18.917 34.1982 19.01 34.0713 19.0745 33.9301C19.1391 33.789 19.1738 33.6364 19.1767 33.4817C19.1728 33.1816 19.0511 32.8946 18.837 32.6803C18.623 32.4661 18.3329 32.3412 18.0274 32.3316Z" fill="#424242"/>
<path d="M12.3788 6.75446V8.78422H8.052V6.81663C7.71478 6.79332 7.46306 6.76068 7.21134 6.75913C6.13004 6.75913 5.04875 6.77156 3.96745 6.75135C3.09513 6.73581 2.67875 6.37835 2.66925 5.62457C2.65026 4.12324 2.65976 2.62035 2.66925 1.11746C2.66925 0.383883 3.10146 0.0108793 3.81072 0.00932508C8.08419 -0.00310836 12.3587 -0.00310836 16.6343 0.00932508C17.3641 0.00932508 17.7647 0.419626 17.7726 1.12833C17.79 2.62967 17.7963 4.13256 17.7726 5.63545C17.7552 6.40011 17.3404 6.73892 16.4602 6.75757C15.4311 6.77933 14.4021 6.75757 13.3746 6.75757L12.3788 6.75446Z" fill="#424242"/>
<path d="M0.539787 29.8247C1.12556 29.1098 1.56726 28.4928 2.09604 27.9597C2.29076 27.7623 2.68972 27.6799 2.99685 27.6784C9.88254 27.6628 16.7688 27.6587 23.6555 27.6659C26.8757 27.6659 30.0942 27.683 33.3128 27.6504C33.916 27.6504 34.2928 27.7949 34.5714 28.328C34.8294 28.8223 35.1809 29.2699 35.5482 29.8247H0.539787Z" fill="#424242"/>
</g>
<defs>
<clipPath id="clip0">
<rect width="36" height="36" fill="white"/>
</clipPath>
</defs>
</svg>
