<svg width="36" height="36" viewBox="0 0 36 36" fill="none" xmlns="http://www.w3.org/2000/svg">
<g clip-path="url(#clip0)">
<path d="M14.1145 21.8854H0L0 36H14.1145V21.8854Z" fill="black"/>
<path d="M0 0L0 17.6035H3.64758C13.4802 17.6035 18.3965 22.5198 18.3965 32.3524V36H36V0L0 0ZM28.5463 7.45374C28.5463 12.2115 28.5463 23.7885 28.5463 28.5463C27.2775 28.5463 26.9604 28.5463 25.6916 28.5463C24.4229 18.0793 17.9207 11.5771 7.45374 10.3084C7.45374 9.03965 7.45374 8.72247 7.45374 7.45374C12.2115 7.45374 23.7885 7.45374 28.5463 7.45374Z" fill="#5EB130"/>
</g>
<defs>
<clipPath id="clip0">
<rect width="36" height="36" fill="white"/>
</clipPath>
</defs>
</svg>
