<svg width="7" height="14" viewBox="0 0 7 14" fill="none" xmlns="http://www.w3.org/2000/svg">
<path d="M6.76343 1.94733C7.07886 1.61623 7.07886 1.07942 6.76343 0.748323C6.44801 0.417227 5.93661 0.417227 5.62118 0.748323L0.236568 6.4005C-0.0788559 6.73159 -0.0788559 7.26841 0.236568 7.5995L5.62118 13.2517C5.93661 13.5828 6.44801 13.5828 6.76343 13.2517C7.07886 12.9206 7.07886 12.3838 6.76343 12.0527L1.94994 7L6.76343 1.94733Z" fill="#E6E6E6"/>
</svg>
