<svg width="51" height="50" viewBox="0 0 51 50" fill="none" xmlns="http://www.w3.org/2000/svg">
<circle opacity="0.4" cx="25.3638" cy="25" r="25" fill="#E6E6E6"/>
<path d="M14.3638 18H36.3638V30.5H14.3638V18Z" fill="#424242"/>
<path d="M19.8638 31H30.8638V31.5H19.8638V31Z" fill="#424242"/>
</svg>
