<svg width="25" height="25" viewBox="0 0 25 25" fill="none" xmlns="http://www.w3.org/2000/svg">
<rect width="25" height="25" rx="5" fill="url(#paint0_linear)"/>
<path d="M12.2344 3.27087C8.45208 3.27087 4.86042 2.93441 3.48854 6.45525C2.92188 7.90941 3.00417 9.79796 3.00417 12.5021C3.00417 14.875 2.92813 17.1052 3.48854 18.548C4.85729 22.0709 8.47813 21.7334 12.2323 21.7334C15.8542 21.7334 19.5885 22.1105 20.9771 18.548C21.5448 17.0792 21.4615 15.2188 21.4615 12.5021C21.4615 8.89587 21.6604 6.56775 19.9115 4.81983C18.1406 3.049 15.7458 3.27087 12.2302 3.27087H12.2344ZM11.4073 4.93441C19.2969 4.92191 20.301 4.04483 19.7469 16.2292C19.55 20.5386 16.2688 20.0657 12.2354 20.0657C4.88125 20.0657 4.66979 19.8552 4.66979 12.498C4.66979 5.05525 5.25313 4.93858 11.4073 4.93233V4.93441ZM17.1615 6.4667C16.55 6.4667 16.0542 6.96254 16.0542 7.574C16.0542 8.18546 16.55 8.68129 17.1615 8.68129C17.7729 8.68129 18.2688 8.18546 18.2688 7.574C18.2688 6.96254 17.7729 6.4667 17.1615 6.4667V6.4667ZM12.2344 7.7615C9.61667 7.7615 7.49479 9.88441 7.49479 12.5021C7.49479 15.1198 9.61667 17.2417 12.2344 17.2417C14.8521 17.2417 16.9729 15.1198 16.9729 12.5021C16.9729 9.88441 14.8521 7.7615 12.2344 7.7615V7.7615ZM12.2344 9.42504C16.3021 9.42504 16.3073 15.5792 12.2344 15.5792C8.16771 15.5792 8.16146 9.42504 12.2344 9.42504Z" fill="white"/>
<defs>
<linearGradient id="paint0_linear" x1="1.68118" y1="23.4036" x2="24.9117" y2="3.3242" gradientUnits="userSpaceOnUse">
<stop stop-color="#FFDD55"/>
<stop offset="0.5" stop-color="#FF543E"/>
<stop offset="1" stop-color="#C837AB"/>
</linearGradient>
</defs>
</svg>
