<svg width="25" height="25" viewBox="0 0 25 25" fill="none" xmlns="http://www.w3.org/2000/svg">
<path d="M5.00271 0.000329365C2.24062 0.000236721 0.00152063 2.23622 0.00192805 4.99831C0.00254142 9.1566 0.00306323 15.1564 0.0020333 19.9968C0.00144543 22.7596 2.23737 25.0002 5.00018 25.0002C9.15968 25.0002 15.1609 25.0002 20.0014 25.0002C22.7628 25.0002 25.001 22.765 25.001 20.0037C25.001 15.8443 25.001 9.84153 25.001 4.99982C25.001 2.23845 22.7625 0.000144643 20.0011 0.000181137C15.0017 0.000247209 10.0022 0.000497053 5.00271 0.000329365Z" fill="#675DA9"/>
<path d="M19.4792 4.85371C19.0078 4.42035 17.0995 3.03285 12.8457 3.01384C12.8457 3.01384 7.83172 2.70973 5.38742 4.95255C4.02652 6.31345 3.54755 8.30157 3.49813 10.7725C3.44871 13.2396 3.38409 17.8659 7.84312 19.1203H7.84692L7.84312 21.0324C7.84312 21.0324 7.81651 21.8079 8.3259 21.9638C8.94172 22.1538 9.30665 21.5646 9.89587 20.9298C10.219 20.5801 10.6638 20.0707 11.0021 19.6791C14.0508 19.9338 16.3962 19.3484 16.6623 19.261C17.2782 19.0595 20.764 18.6147 21.3305 13.9885C21.9159 9.22911 21.0453 6.21461 19.4792 4.85371ZM19.9962 13.6539C19.5172 17.5161 16.6928 17.7594 16.172 17.9267C15.9515 17.9989 13.8911 18.5121 11.2986 18.341C11.2986 18.341 9.36748 20.6713 8.76686 21.2757C8.67182 21.3708 8.56158 21.4088 8.48936 21.3898C8.38672 21.3632 8.35631 21.2415 8.36011 21.0628C8.36011 20.8043 8.37531 17.8811 8.37531 17.8811C8.37151 17.8811 8.37151 17.8811 8.37531 17.8811C4.60053 16.8357 4.82101 12.8975 4.86283 10.8371C4.90464 8.77675 5.29239 7.08513 6.44421 5.94851C8.50836 4.07823 12.7697 4.35573 12.7697 4.35573C16.3658 4.37094 18.0879 5.45433 18.487 5.81546C19.8137 6.95588 20.4903 9.67388 19.9962 13.6539Z" fill="white"/>
<path d="M14.5982 10.9095C14.4728 10.9095 14.3663 10.8106 14.3587 10.6814C14.3169 9.86408 13.933 9.46493 13.1499 9.42311C13.0168 9.41551 12.9142 9.30147 12.9218 9.16842C12.9294 9.03537 13.0434 8.93274 13.1765 8.94034C14.2105 8.99736 14.7883 9.59038 14.8415 10.6548C14.8491 10.7878 14.7465 10.9019 14.6134 10.9057C14.6058 10.9095 14.602 10.9095 14.5982 10.9095Z" fill="white"/>
<path d="M15.8296 11.3199H15.8258C15.6927 11.3161 15.5863 11.2058 15.5901 11.0728C15.6091 10.2517 15.3734 9.58644 14.8716 9.03904C14.3736 8.49164 13.6856 8.19513 12.777 8.13051C12.644 8.1191 12.5452 8.00506 12.5566 7.87201C12.568 7.73896 12.682 7.64013 12.8151 7.65153C13.8414 7.72756 14.6511 8.08489 15.2289 8.71592C15.8106 9.35075 16.0919 10.1452 16.0728 11.0842C16.069 11.2172 15.9588 11.3199 15.8296 11.3199Z" fill="white"/>
<path d="M17.0917 11.8142C16.9586 11.8142 16.8522 11.7078 16.8522 11.5747C16.8408 10.1036 16.4188 8.98216 15.5597 8.14206C14.712 7.31335 13.6362 6.8914 12.3703 6.87999C12.2373 6.87999 12.1309 6.76975 12.1309 6.6367C12.1309 6.50366 12.2411 6.39722 12.3703 6.39722C13.7655 6.40862 14.9515 6.87619 15.8904 7.79613C16.8332 8.71606 17.316 9.98573 17.3312 11.5671C17.335 11.704 17.2285 11.8142 17.0917 11.8142C17.0955 11.8142 17.0955 11.8142 17.0917 11.8142Z" fill="white"/>
<path d="M13.2066 13.8858C13.2066 13.8858 13.5449 13.9162 13.7274 13.6919L14.0809 13.2472C14.252 13.0267 14.6663 12.886 15.0693 13.1103C15.2935 13.2358 15.7003 13.4867 15.9512 13.6729C16.2211 13.8706 16.7685 14.3268 16.7723 14.3306C17.0346 14.551 17.0954 14.8742 16.9167 15.2201C16.9167 15.2201 16.9167 15.2239 16.9167 15.2277C16.7343 15.5508 16.4872 15.8549 16.1793 16.1362C16.1755 16.1362 16.1755 16.14 16.1717 16.14C15.917 16.3529 15.6661 16.4746 15.4228 16.5012C15.3924 16.5088 15.3582 16.5088 15.3126 16.5088C15.2061 16.5088 15.0997 16.4936 14.9932 16.4593L14.9856 16.4479C14.6055 16.3415 13.9745 16.0754 12.9253 15.4938C12.241 15.1175 11.6746 14.7335 11.1918 14.3496C10.9372 14.1481 10.6787 13.9238 10.4126 13.6577C10.405 13.6501 10.3936 13.6387 10.386 13.6311C10.3783 13.6235 10.3669 13.6121 10.3593 13.6045C10.3517 13.5969 10.3403 13.5855 10.3327 13.5779C10.3251 13.5703 10.3137 13.5589 10.3061 13.5513C10.0438 13.2852 9.81574 13.0267 9.61427 12.772C9.23033 12.293 8.84639 11.7228 8.47005 11.0386C7.88844 9.98558 7.62234 9.35455 7.5159 8.97821L7.5045 8.97061C7.47028 8.86417 7.45508 8.75773 7.45508 8.65129C7.45508 8.60567 7.45508 8.57146 7.46268 8.54105C7.49309 8.29396 7.61474 8.04687 7.82381 7.79217C7.82381 7.78837 7.82761 7.78837 7.82761 7.78457C8.10892 7.47286 8.41303 7.22957 8.73615 7.0471C8.73615 7.0471 8.73995 7.0471 8.74375 7.0471C9.08588 6.86844 9.40899 6.92926 9.63328 7.19155C9.63328 7.19155 10.0932 7.74276 10.2909 8.01266C10.4772 8.26735 10.7281 8.6703 10.8535 8.89458C11.0778 9.29752 10.9372 9.71188 10.7167 9.88294L10.2719 10.2365C10.0476 10.4189 10.078 10.7573 10.078 10.7573C10.078 10.7573 10.7357 13.2586 13.2066 13.8858Z" fill="white"/>
</svg>
