<svg width="9" height="17" viewBox="0 0 9 17" fill="none" xmlns="http://www.w3.org/2000/svg">
<path d="M0.304158 14.3464C-0.101386 14.7539 -0.101386 15.4146 0.304158 15.8221C0.709703 16.2296 1.36722 16.2296 1.77276 15.8221L8.69584 8.86554C9.10139 8.45803 9.10139 7.79734 8.69584 7.38983L1.77276 0.433313C1.36722 0.0258096 0.709703 0.0258096 0.304158 0.433313C-0.101386 0.840817 -0.101386 1.50151 0.304158 1.90901L6.49293 8.12769L0.304158 14.3464Z" fill="#00A3A4"/>
</svg>
