<svg width="16" height="10" viewBox="0 0 16 10" fill="none" xmlns="http://www.w3.org/2000/svg">
<path fill-rule="evenodd" clip-rule="evenodd" d="M10.2197 9.28033C9.92678 8.98744 9.92678 8.51256 10.2197 8.21967L12.9393 5.5H0.75C0.335786 5.5 0 5.16421 0 4.75C0 4.33579 0.335786 4 0.75 4H12.9393L10.2197 1.28033C9.92678 0.987437 9.92678 0.512563 10.2197 0.21967C10.5126 -0.0732233 10.9874 -0.0732233 11.2803 0.21967L15.2803 4.21967C15.5732 4.51256 15.5732 4.98744 15.2803 5.28033L11.2803 9.28033C10.9874 9.57322 10.5126 9.57322 10.2197 9.28033Z" fill="#00A3A4"/>
</svg>
