<svg width="19" height="19" viewBox="0 0 19 19" fill="none" xmlns="http://www.w3.org/2000/svg">
<path fill-rule="evenodd" clip-rule="evenodd" d="M4.7516 2.73994H14.5316V1.45995C14.5316 1.25573 14.6127 1.05987 14.7571 0.915466C14.9015 0.771063 15.0974 0.689941 15.3016 0.689941C15.5058 0.689941 15.7017 0.771063 15.8461 0.915466C15.9905 1.05987 16.0716 1.25573 16.0716 1.45995V2.74994C16.7736 2.81698 17.4256 3.14284 17.9007 3.66409C18.3757 4.18534 18.6398 4.86471 18.6416 5.56995V15.8599C18.6416 16.2316 18.5684 16.5996 18.4262 16.9429C18.284 17.2863 18.0755 17.5983 17.8127 17.8611C17.5499 18.1238 17.2379 18.3323 16.8946 18.4745C16.5512 18.6167 16.1832 18.6899 15.8116 18.6899H3.4716C3.09996 18.6899 2.73196 18.6167 2.38861 18.4745C2.04526 18.3323 1.73328 18.1238 1.47049 17.8611C1.2077 17.5983 0.999246 17.2863 0.857025 16.9429C0.714804 16.5996 0.641602 16.2316 0.641602 15.8599V5.56995C0.643374 4.86471 0.907481 4.18534 1.38252 3.66409C1.85756 3.14284 2.50956 2.81698 3.21161 2.74994V1.45995C3.21161 1.35883 3.23152 1.25869 3.27022 1.16527C3.30891 1.07185 3.36563 0.986967 3.43713 0.915466C3.50863 0.843965 3.59351 0.787247 3.68694 0.74855C3.78036 0.709854 3.88048 0.689941 3.9816 0.689941C4.08272 0.689941 4.18284 0.709854 4.27626 0.74855C4.36968 0.787247 4.45458 0.843965 4.52608 0.915466C4.59758 0.986967 4.6543 1.07185 4.69299 1.16527C4.73169 1.25869 4.7516 1.35883 4.7516 1.45995V2.73994ZM3.9816 4.28993H3.4716C3.30267 4.28861 3.13515 4.32076 2.9787 4.38449C2.82225 4.44823 2.67995 4.54229 2.56003 4.66129C2.44011 4.78028 2.34493 4.92184 2.27998 5.07779C2.21503 5.23374 2.18159 5.40101 2.18159 5.56995V6.36993H17.1016V5.56995C17.1016 5.40101 17.0682 5.23374 17.0032 5.07779C16.9383 4.92184 16.8431 4.78028 16.7232 4.66129C16.6033 4.54229 16.461 4.44823 16.3045 4.38449C16.1481 4.32076 15.9805 4.28861 15.8116 4.28993H3.9816ZM2.18159 7.90994V15.8599C2.18159 16.0289 2.21503 16.1961 2.27998 16.3521C2.34493 16.508 2.44011 16.6496 2.56003 16.7686C2.67995 16.8876 2.82225 16.9817 2.9787 17.0454C3.13515 17.1091 3.30267 17.1413 3.4716 17.1399H15.8116C15.9805 17.1413 16.1481 17.1091 16.3045 17.0454C16.461 16.9817 16.6033 16.8876 16.7232 16.7686C16.8431 16.6496 16.9383 16.508 17.0032 16.3521C17.0682 16.1961 17.1016 16.0289 17.1016 15.8599V7.90994H2.18159Z" fill="#00A3A4"/>
<path d="M9.21155 12.1199H8.11154V10.93C8.11154 10.7708 8.04833 10.6182 7.93581 10.5057C7.82328 10.3932 7.67067 10.33 7.51154 10.33H7.13155C6.97242 10.33 6.8198 10.3932 6.70728 10.5057C6.59475 10.6182 6.53154 10.7708 6.53154 10.93V12.1199H5.43153C5.2724 12.1199 5.1198 12.1832 5.00728 12.2957C4.89476 12.4082 4.83154 12.5608 4.83154 12.72V13.05C4.83154 13.2091 4.89476 13.3617 5.00728 13.4742C5.1198 13.5867 5.2724 13.6499 5.43153 13.6499H6.53154V14.9799C6.53154 15.1391 6.59475 15.2917 6.70728 15.4042C6.8198 15.5167 6.97242 15.58 7.13155 15.58H7.51154C7.67067 15.58 7.82328 15.5167 7.93581 15.4042C8.04833 15.2917 8.11154 15.1391 8.11154 14.9799V13.6499H9.21155C9.37068 13.6499 9.52328 13.5867 9.6358 13.4742C9.74832 13.3617 9.81154 13.2091 9.81154 13.05V12.72C9.81154 12.5608 9.74832 12.4082 9.6358 12.2957C9.52328 12.1832 9.37068 12.1199 9.21155 12.1199Z" fill="#00A3A4"/>
<path d="M14.0317 9.28992H10.3017C10.1425 9.28992 9.98992 9.35315 9.8774 9.46567C9.76487 9.57819 9.70166 9.73079 9.70166 9.88992V10.1199C9.70166 10.279 9.76487 10.4317 9.8774 10.5442C9.98992 10.6567 10.1425 10.7199 10.3017 10.7199H12.7817L10.6417 15.3399C10.6 15.4309 10.5817 15.5309 10.5885 15.6308C10.5953 15.7306 10.627 15.8272 10.6806 15.9117C10.7343 15.9962 10.8083 16.0659 10.8958 16.1145C10.9833 16.1631 11.0816 16.189 11.1817 16.1899H11.5617C11.6762 16.1914 11.7886 16.159 11.8847 16.0967C11.9808 16.0344 12.0563 15.9451 12.1017 15.8399L14.5617 10.3199C14.6014 10.2462 14.6221 10.1637 14.6217 10.0799V9.85992C14.6141 9.70776 14.5489 9.5642 14.4393 9.45834C14.3297 9.35249 14.184 9.29227 14.0317 9.28992Z" fill="#00A3A4"/>
</svg>
